Name,WeightClassKg,Division,Sex,Best3SquatKg,Best3BenchKg,Best3DeadliftKg,TotalKg,Event,Equipment,Place
K. Jones,52,Open,M,147.5,87.5,155,390,SBD,Single-ply,1
L. Thomas,52,Open,M,132.5,95,150,377.5,SBD,Single-ply,2
S. Roane,52,Open,M,127.5,75,132.5,335,SBD,Single-ply,3
H. Mgrujen,52,Open,M,142.5,60,120,322.5,SBD,Single-ply,4
J. Hodges,52,Open,M,105,67.5,142.5,315,SBD,Single-ply,5
M. Duhan,52,Open,M,97.5,70,137.5,305,SBD,Single-ply,6
J. Collingham,56,Open,M,137.5,92.5,160,390,SBD,Single-ply,1
S. Bellotte,56,Open,M,142.5,87.5,155,385,SBD,Single-ply,2
A. Rellemaier,56,Open,M,135,100,150,385,SBD,Single-ply,3
T. Smith,56,Open,M,120,82.5,150,352.5,SBD,Single-ply,4
L. Kerr,60,Open,M,155,120,220,495,SBD,Single-ply,1
E. Johnson,60,Open,M,175,122.5,195,492.5,SBD,Single-ply,2
K. O'Conner,60,Open,M,172.5,100,190,462.5,SBD,Single-ply,3
J. Courtney,60,Open,M,167.5,97.5,180,445,SBD,Single-ply,4
R. Gaillot,60,Open,M,147.5,110,182.5,440,SBD,Single-ply,5
C. Garcia,60,Open,M,140,85,140,365,SBD,Single-ply,6
Jamie Safdarinia,67.5,Open,M,230,157.5,227.5,615,SBD,Single-ply,1
B. Broussard,67.5,Open,M,205,132.5,217.5,555,SBD,Single-ply,2
R. McCarty,67.5,Open,M,190,152.5,195,537.5,SBD,Single-ply,3
Doug Holland,67.5,Open,M,205,117.5,197.5,520,SBD,Single-ply,4
Richard Beck,67.5,Open,M,195,117.5,197.5,510,SBD,Single-ply,5
J. Hornhack,67.5,Open,M,167.5,102.5,212.5,482.5,SBD,Single-ply,6
G. Rsarsk,67.5,Open,M,150,87.5,182.5,420,SBD,Single-ply,7
E. Finister,75,Open,M,207.5,147.5,235,590,SBD,Single-ply,1
J. Blakey,75,Open,M,225,142.5,217.5,585,SBD,Single-ply,2
Steve LeMarie,75,Open,M,220,127.5,232.5,580,SBD,Single-ply,3
Fred Cortes,75,Open,M,207.5,145,215,567.5,SBD,Single-ply,4
B. Boyer,75,Open,M,182.5,140,220,542.5,SBD,Single-ply,5
S. Yablon,75,Open,M,147.5,117.5,175,440,SBD,Single-ply,6
J. Clawford,75,Open,M,130,95,177.5,402.5,SBD,Single-ply,7
S. Mays,75,Open,M,112.5,92.5,182.5,387.5,SBD,Single-ply,8
Mark Speedy,75,Open,M,192.5,142.5,195,530,SBD,Single-ply,G
C. Gonzales,75,Open,M,160,142.5,197.5,500,SBD,Single-ply,G
Chris Garcia,82.5,Open,M,272.5,175,267.5,715,SBD,Single-ply,1
J. Adams,82.5,Open,M,237.5,145,272.5,655,SBD,Single-ply,2
J. Schmidt,82.5,Open,M,215,165,272.5,652.5,SBD,Single-ply,3
T. Longo,82.5,Open,M,245,145,257.5,647.5,SBD,Single-ply,4
Chad DeRousselle,82.5,Open,M,227.5,137.5,272.5,637.5,SBD,Single-ply,5
Robert Sommers,82.5,Open,M,245,140,250,635,SBD,Single-ply,6
Stuart Hente,82.5,Open,M,240,137.5,240,617.5,SBD,Single-ply,7
P. Talley,82.5,Open,M,187.5,127.5,245,560,SBD,Single-ply,9
S. McGough,82.5,Open,M,200,140,227.5,567.5,SBD,Single-ply,8
P. Mykleby,82.5,Open,M,167.5,110,210,487.5,SBD,Single-ply,10
C. Hirril,82.5,Open,M,147.5,122.5,200,470,SBD,Single-ply,11
W. Hawkine,82.5,Open,M,112.5,92.5,142.5,347.5,SBD,Single-ply,12
Kevin Kish,82.5,Open,M,205,115,217.5,537.5,SBD,Single-ply,G
J. Roberts,90,Open,M,272.5,197.5,272.5,742.5,SBD,Single-ply,1
S. Schoaf,90,Open,M,240,155,287.5,682.5,SBD,Single-ply,1
David Georges,90,Open,M,237.5,182.5,257.5,677.5,SBD,Single-ply,2
Paul Fletcher,90,Open,M,227.5,147.5,270,645,SBD,Single-ply,3
Stan Kruse,90,Open,M,230,142.5,245,617.5,SBD,Single-ply,4
P. Delfield,90,Open,M,220,150,240,610,SBD,Single-ply,5
B. Murray,90,Open,M,227.5,157.5,217.5,602.5,SBD,Single-ply,6
B. Allen,90,Open,M,220,122.5,227.5,570,SBD,Single-ply,7
T. Allen,90,Open,M,265,172.5,260,697.5,SBD,Single-ply,G
Ken Croxdale,90,Open,M,227.5,147.5,260,635,SBD,Single-ply,G
J. Wiseman,100,Open,M,275,172.5,287.5,735,SBD,Single-ply,1
B. McGough,100,Open,M,265,162.5,300,727.5,SBD,Single-ply,2
D. Swater,100,Open,M,260,167.5,280,707.5,SBD,Single-ply,3
B. Calattenburg,100,Open,M,265,135,252.5,652.5,SBD,Single-ply,4
G. Green,100,Open,M,220,155,255,630,SBD,Single-ply,5
M. Costa,100,Open,M,215,140,235,590,SBD,Single-ply,6
A. Mendez,100,Open,M,195,155,222.5,572.5,SBD,Single-ply,7
D. Person,100,Open,M,205,137.5,217.5,560,SBD,Single-ply,8
R. Dukes,100,Open,M,155,117.5,225,497.5,SBD,Single-ply,9
Chip McCain,100,Open,M,65,210,102.5,377.5,SBD,Single-ply,G
J. Hanley,110,Open,M,305,197.5,307.5,810,SBD,Single-ply,1
Robert Windsor,110,Open,M,277.5,217.5,250,745,SBD,Single-ply,2
C. Sanders,110,Open,M,272.5,205,260,737.5,SBD,Single-ply,3
Kevin Yoxall,110,Open,M,260,182.5,292.5,735,SBD,Single-ply,4
J. Rodgers,110,Open,M,175,130,255,560,SBD,Single-ply,5
A. Sciara,110,Open,M,215,102.5,210,527.5,SBD,Single-ply,6
Ken DeLong,110,Open,M,277.5,175,,,SBD,Single-ply,DQ
K. Kahanek,125,Open,M,182.5,142.5,270,595,SBD,Single-ply,1
George Wiley,125+,Open,M,292.5,152.5,277.5,722.5,SBD,Single-ply,1
Zanthia Smith,,Open,F,97.5,47.5,130,275,SBD,Single-ply,1
Dougherty,,Open,F,92.5,55,127.5,275,SBD,Single-ply,2
Parker,,Open,F,90,45,135,270,SBD,Single-ply,3
B. Humphries,,Open,F,87.5,50,110,247.5,SBD,Single-ply,4
V. Allen,,Open,F,67.5,45,102.5,215,SBD,Single-ply,5
B. Bivins,,Open,F,77.5,32.5,105,215,SBD,Single-ply,6
B. Skeeters,,Open,F,72.5,35,102.5,210,SBD,Single-ply,8
Tina Palisi,,Open,F,87.5,37.5,87.5,212.5,SBD,Single-ply,7
K. Elliot,,Open,F,67.5,32.5,92.5,192.5,SBD,Single-ply,9
