Sex,Equipment,Division,Age,WeightClassKg,Name,BodyweightKg,Best3SquatKg,Best3BenchKg,Best3DeadliftKg,TotalKg,Event,Place
F,Raw,Amateur Youth,11,44,Matti Marsee,40.82,54.43,34.02,79.38,167.83,SBD,1
F,Wraps,Pro Open,,48,April Shumaker,47.63,136.08,97.52,136.08,369.68,SBD,1
F,Raw,Amateur Open,,52,Linda Eveleth,51.71,92.99,54.43,113.4,260.82,SBD,1
F,Wraps,Pro Open,,52,Lisa Guggisberg,51.71,151.95,70.31,158.76,381.02,SBD,1
F,Raw,Pro Open,,56,Katie Caserta,55.79,129.27,68.04,117.93,315.25,SBD,1
F,Raw,Pro Open,,56,Gaudy Herring,55.34,,,,,SBD,DQ
F,Raw,Pro Open,,60,Brittany Schwartz,56.47,102.06,49.9,99.79,251.74,SBD,1
F,Wraps,Amateur Open,,67.5,Autumm Brown-Ulm,66.68,104.33,56.7,124.74,285.76,SBD,2
F,Wraps,Amateur Open,,67.5,Nicole Balkau,64.41,129.27,47.63,124.74,301.64,SBD,1
F,Raw,Amateur Open,,67.5,Melissa Trippany,67.13,133.81,72.57,142.88,349.27,SBD,1
F,Wraps,Pro Open,,67.5,Amanda Crawford,66.9,142.88,92.99,179.17,415.04,SBD,1
F,Raw,Pro Juniors 20-23,22,67.5,Erika Young,67.13,106.59,83.91,145.15,335.66,SBD,1
F,Raw,Amateur Open,,75,Kelley Denney,73.48,74.84,56.7,136.08,267.62,SBD,1
F,Wraps,Pro Open,,110+,Sara Berlin,123.6,231.33,108.86,215.46,555.65,SBD,1
F,Raw,Pro Open,,100,Natalie Anton,99.79,161.03,79.38,167.83,408.23,SBD,1
M,Wraps,Amateur Teen 14-15,15,60,Blake Schultz,57.83,70.31,43.09,104.33,217.72,SBD,1
M,Multi-ply,Pro Open,,75,Danny Bellmore,74.62,306.17,217.72,290.3,814.2,SBD,1
M,Raw,Amateur Teen 16-17,16,82.5,Charles Wannemacher,81.65,165.56,92.99,174.63,433.18,SBD,1
M,Raw,Amateur Open,,82.5,Zach Vonderheide,79.38,142.88,117.93,197.31,458.13,SBD,5
M,Raw,Amateur Open,,82.5,Luke Carta,81.19,174.63,117.93,192.78,485.34,SBD,4
M,Raw,Amateur Open,,82.5,Luke Labreche,82.1,181.44,124.74,204.12,510.29,SBD,3
M,Raw,Amateur Open,,82.5,Kody Gammey,80.29,161.03,124.74,235.87,521.63,SBD,2
M,Raw,Amateur Open,,82.5,Chris Wallace,81.42,208.65,158.76,265.35,632.76,SBD,1
M,Raw,Pro Open,,82.5,Chris Ruden,80.51,233.6,142.88,249.48,625.96,SBD,1
M,Wraps,Pro Juniors 20-23,,90,Hans Hinnershitz,89.81,258.55,161.03,285.76,705.34,SBD,1
M,Wraps,Pro Juniors 20-23,,90,Dan Longo,89.81,272.16,185.97,240.4,698.53,SBD,2
M,Raw,Pro Masters 50-54,53,90,Terry Jacobs,89.58,195.04,131.54,199.58,526.17,SBD,1
M,Raw,Pro Open,,90,Tyler Klenow,87.54,183.7,151.95,206.38,542.04,SBD,2
M,Raw,Pro Open,,90,Terry Jacobs,89.58,195.04,131.54,199.58,526.17,SBD,3
M,Wraps,Pro Open,,90,Kevin Reynolds,89.81,183.7,142.88,208.65,535.24,SBD,4
M,Wraps,Pro Open,,90,Filipe Gusmao,89.36,242.67,156.49,226.8,625.96,SBD,3
M,Wraps,Pro Open,,90,Ben Sheard,89.36,256.28,151.95,226.8,635.03,SBD,2
M,Wraps,Pro Open,,90,Andrew Hagen,88,272.16,165.56,283.5,721.21,SBD,1
M,Raw,Amateur Submasters 33-39,,100,Kitt Hildreth,90.08,215.46,151.95,231.33,598.74,SBD,1
M,Raw,Pro Open,,100,Kitt Hildreth,90.08,215.46,151.95,231.33,598.74,SBD,1
M,Wraps,Pro Masters 45-49,,100,Jim Bailey,95.93,170.1,140.61,190.51,501.22,SBD,1
M,Raw,Pro Open,,100,Joseph Edwards,97.75,174.63,138.35,224.53,537.51,SBD,1
M,Raw,Amateur Open,,100,Justin Haskins,99.79,192.78,142.88,215.46,551.11,SBD,1
M,Wraps,Amateur Open,,100,Sean Brownstein,99.79,,,,,SBD,DQ
M,Wraps,Pro Open,,100,Todd Guggisberg,97.52,244.94,154.22,233.6,632.76,SBD,6
M,Wraps,Pro Open,,100,Louis Carrell,97.3,272.16,156.49,265.35,694,SBD,5
M,Wraps,Pro Open,,100,Steve Rohbacher,95.71,297.1,165.56,272.16,734.82,SBD,4
M,Wraps,Pro Open,,100,Danny Vega,99.34,276.69,176.9,317.51,771.11,SBD,3
M,Wraps,Pro Open,,100,Lance Hickey,98.88,333.39,181.44,319.78,834.61,SBD,2
M,Raw,Pro Open,,100,Jordan Wong,99.79,356.07,195.04,294.84,845.95,SBD,1
M,Multi-ply,Pro Open,,100,Brad Kiltz,91.4,328.85,161.03,272.16,762.04,SBD,1
M,Wraps,Amateur Teen 16-17,16,110,Paulo Sevick,102.51,226.8,154.22,229.06,610.08,SBD,1
M,Wraps,Amateur Open,,110,Michael Salazar,109.32,204.12,158.76,213.19,576.06,SBD,3
M,Wraps,Pro Open,,110,Scott Paltos,108.41,297.1,,274.42,,SBD,DQ
M,Wraps,Pro Open,,110,Mike Franz,104.33,208.65,181.44,231.33,621.42,SBD,2
M,Wraps,Amateur Open,,110,Andy Polk,108.41,226.8,129.27,294.84,650.91,SBD,2
M,Wraps,Pro Open,,110,Andrew DiLaurenzio,107.73,233.6,174.63,249.48,657.71,SBD,1
M,Wraps,Amateur Open,,110,Brandon Hageroff,105.01,260.82,154.22,294.84,709.87,SBD,1
M,Wraps,Pro Masters 55-59,57,110,George Boldissar,109.09,238.14,192.78,244.94,675.85,SBD,1
M,Single-ply,Amateur Submasters 33-39,,110,Joseph Walraven,107.05,324.32,235.87,317.51,877.7,SBD,1
M,Single-ply,Police Pro Open,,110,Joseph Walraven,107.05,324.32,235.87,317.51,877.7,SBD,1
M,Multi-ply,Pro Masters 45-49,47,110,Keith Price,109.32,353.8,249.48,272.16,875.43,SBD,1
M,Multi-ply,Pro Open,,110,Chris Della Fave,108.41,419.57,326.59,362.87,1109.03,SBD,1
M,Multi-ply,Amateur Masters 40-44,42,125,Shawn Knowles,119.29,396.89,272.16,272.16,941.2,SBD,1
M,Multi-ply,Pro Open,,125,Jo Jordan,116.12,439.98,283.5,274.42,997.9,SBD,1
M,Multi-ply,Pro Masters 40-44,41,125,Jo Jordan,116.12,439.98,283.5,274.42,997.9,SBD,1
M,Wraps,Amateur Open,,125,Scott Weaver,124.74,183.7,136.08,226.8,546.58,SBD,1
M,Wraps,Pro Open,,125,Jason Kowalewski,116.57,263.08,199.58,267.62,730.28,SBD,2
M,Wraps,Pro Open,,125,Terry Boynton,117.93,274.42,185.97,322.05,782.45,SBD,1
M,Wraps,Pro Open,,140,Tarzan Bryant,126.78,249.48,151.95,233.6,635.03,SBD,2
M,Wraps,Pro Open,,140,Cyprian Thompson Jr,137.21,362.87,165.56,306.17,834.61,SBD,1
M,Wraps,Amateur Masters 55-59,56,140+,Michael Reid,149.91,215.46,151.95,238.14,605.55,SBD,1
M,Wraps,Pro Open,,140+,Billy Tutko,146.74,356.07,249.48,306.17,911.72,SBD,1
M,Multi-ply,Pro Open,,90,Rob Boisclair,88.22,,113.4,158.76,272.16,BD,1
M,Raw,Amateur Submasters 33-39,,90,Erick Rodiguez,89.36,,170.1,226.8,396.89,BD,1
M,Raw,Pro Open,,90,Stephen Harper,87.32,,156.49,272.16,428.64,BD,1
M,Raw,Amateur Masters 60-64,60,110,Larry Pikula,106.59,,131.54,,131.54,B,1
M,Raw,Pro Open,,100,Stephen Cody,99.11,,145.15,,145.15,B,1
M,Raw,Amateur Masters 80-84,80,100,Johnny Yong,95.71,,129.27,,129.27,B,1
M,Raw,Pro Masters 55-59,58,90,Brian Hart,88,,151.95,,151.95,B,1
M,Raw,Amateur Open,,90,Clayton Long,84.82,,136.08,,136.08,B,1
F,Raw,Amateur Masters 55-59,55,75,Mary Thompson,73.94,,52.16,,52.16,B,1
