Place,Name,CyrillicName,Sex,Equipment,Division,Age,WeightClassKg,BodyweightKg,Squat1Kg,Squat2Kg,Squat3Kg,Best3SquatKg,Squat4Kg,Bench1Kg,Bench2Kg,Bench3Kg,Best3BenchKg,Bench4Kg,Deadlift1Kg,Deadlift2Kg,Deadlift3Kg,Best3DeadliftKg,Deadlift4Kg,TotalKg,Event
DQ,Darya Bryantseva,Дарья Брянцева,F,Raw,Open,27,48,46,-90,-90,-90,,,,,,,,,,,,,,SBD
1,Yuliya Kalinicheva,Юлия Калиничева,F,Raw,Sub-Juniors 17-19,19,52,51.9,85,92.5,97.5,97.5,,47.5,52.5,-55,52.5,,85,97.5,-110,97.5,,247.5,SBD
DQ,Aleksandra Krivoshapova,Александра Кривошапова,F,Raw,Open,28,52,51,95,-105,-105,95,,52.5,-55,-55,52.5,,-100,-100,-100,,,,SBD
DQ,Yuliya Levina,Юлия Левина,F,Raw,Juniors 20-23,22,56,55.1,-100,-100,-100,,,,,,,,,,,,,,SBD
1,Marina Latukhina,Марина Латухина,F,Raw,Open,33,56,54.4,80,85,90,90,,57.5,-60,-60,57.5,,100,105,110,110,,257.5,SBD
2,Olga Parkhomenko,Ольга Пархоменко,F,Raw,Open,28,56,53.6,85,90,95,95,,50,-55,-55,50,,90,100,107.5,107.5,,252.5,SBD
DQ,Natalya Sidorkina,Наталья Сидоркина,F,Raw,Open,30,56,54.4,90,95,-100,95,,-55,-55,-55,,,-115,,,,,,SBD
1,Marina Bakay,Марина Бакай,F,Raw,Masters 40-49,44,56,55.2,75,-85,-85,75,,-50,50,55,55,,90,100,-105,100,,230,SBD
1,Elena Emelyova,Елена Емелёва,F,Raw,Open,41,60,59.2,-80,-80,85,85,,52.5,55,57.5,57.5,,110,-120,-120,110,,252.5,SBD
1,Elena Emelyova,Елена Емелёва,F,Raw,Masters 40-49,41,60,59.2,-80,-80,85,85,,52.5,55,57.5,57.5,,110,-120,-120,110,,252.5,SBD
1,Roma Shah,,F,Raw,Sub-Juniors 17-19,19,67.5,66.5,-95,95,102.5,102.5,,42.5,-47.5,-47.5,42.5,,115,125,135,135,,280,SBD
1,Roma Shah,,F,Raw,Open,19,67.5,66.5,-95,95,102.5,102.5,,42.5,-47.5,-47.5,42.5,,115,125,135,135,,280,SBD
1,Tatyana Mizinova,Татьяна Мизинова,F,Raw,Open,26,75,69.2,70,80,-90,80,,-45,-47.5,47.5,47.5,,90,-100,100,100,,227.5,SBD
DQ,Elena Konyushenko,Елена Конюшенко,F,Raw,Open,32,75,70.5,-100,100,110,110,,-77.5,80,85,85,,-140,-145,-150,,,,SBD
DQ,Svetlana Buryan,Светлана Бурьян,F,Raw,Masters 40-49,46,82.5,81.4,105,112.5,117.5,117.5,,47.5,-52.5,52.5,52.5,,-130,,,,,,SBD
1,Mariya Zotova,Мария Зотова,F,Raw,Open,29,90+,90.4,-50,50,55,55,,40,-45,-45,40,,90,105,-110,105,,200,SBD
1,Sergey Luchinskiy,Сергей Лучинский,M,Raw,Open,30,60,59.2,160,170,180,180,,100,-110,110,110,,170,180,190,190,,480,SBD
1,Aleksey Korostelyov,Алексей Коростелёв,M,Raw,Sub-Juniors 17-19,18,67.5,65.2,117.5,122.5,130,130,,95,-100,100,100,,135,145,150,150,,380,SBD
1,Dmitriy Sidorkin,Дмитрий Сидоркин,M,Raw,Open,24,67.5,66.6,-170,180,185,185,,135,-140,-140,135,,200,-202.5,,200,,520,SBD
1,Nikolay Emelyanov,Николай Емельянов,M,Raw,Masters 50-59,53,67.5,65.4,115,125,130,130,,85,92.5,-95,92.5,,165,172.5,177.5,177.5,,400,SBD
1,Masood Shokrani,,M,Raw,Masters 60-69,67,67.5,64.4,-65,65,75,75,,75,80,-85,80,,80,90,100,100,,255,SBD
1,Said Lordkipanidze,Саид Лордкипанидзе,M,Raw,Juniors 20-23,22,75,73,180,200,210,210,,110,-120,-125,110,,180,200,220,220,,540,SBD
1,Ilya Shtefan,Илья Штефан,M,Raw,Open,25,75,73,175,-185,-185,175,,125,-130,-130,125,,235,-242.5,-242.5,235,,535,SBD
2,Evgeniy Karpov,Евгений Карпов,M,Raw,Open,37,75,70.7,170,-180,180,180,,130,-135,135,135,,172.5,182.5,185,185,,500,SBD
3,Davit Khambabyan,Давит Хамбабян,M,Raw,Open,28,75,74.1,-160,160,-170,160,,132.5,137.5,-140,137.5,,190,202.5,-205,202.5,,500,SBD
1,Anton Kalinin,Антон Калинин,M,Raw,Open,31,82.5,80.2,190,195,200,200,,140,150,155,155,,-230,230,240,240,,595,SBD
1,Furkat Shafiev,Фуркат Шафиев,M,Raw,Masters 40-49,44,82.5,80.7,80,100,-115,100,,-90,90,-100,90,,90,110,130,130,,320,SBD
1,Ivan Kopytin,Иван Копытин,M,Raw,Sub-Juniors 17-19,18,90,88.2,210,-220,220,220,,130,140,-142.5,140,,220,240,250.5,250.5,,610,SBD
1,Aleksandr Churzin,Александр Чурзин,M,Raw,Juniors 20-23,22,90,89.3,152.5,160,165,165,,115,120,-122.5,120,,190,205,-210,205,,490,SBD
1,Andrey Ulashchik,Андрей Улащик,M,Raw,Open,34,90,88.8,-225,225,-235,225,,160,-170,170,170,,280,295,322,322,,717,SBD
2,Aleksey Sheykin,Алексей Шейкин,M,Raw,Open,29,90,88.3,230,240,250,250,,175,-180,180,180,,285,-300,-300,285,,715,SBD
3,Amarzaya Taivantumur,,M,Raw,Open,30,90,90,210,240,255,255,,182.5,190,-200,190,,240,250,-257.5,250,,695,SBD
4,Sergey Saranskiy,Сергей Саранский,M,Raw,Open,38,90,89.6,220,-240,240,240,,160,-170,170,170,,230,250,-260,250,,660,SBD
5,Andrey Ansimov,Андрей Ансимов,M,Raw,Open,29,90,89.3,190,205,-210,205,,-150,150,-160,150,,220,245,-255,245,,600,SBD
1,Vyacheslav Bondarev,Вячеслав Бондарев,M,Raw,Masters 40-49,49,90,88.7,170,180,,180,,145,155,,155,,210,220,,220,,555,SBD
1,Valeriy Krolevskiy,Валерий Кролевский,M,Raw,Masters 50-59,56,90,89,135,142.5,-147.5,142.5,,100,105,110,110,,155,160,165,165,,417.5,SBD
1,Stepan Sagirov,Степан Сагіров,M,Raw,Open,24,100,96.5,220,230,240,240,,170,182.5,185,185,,260,270,280,280,,705,SBD
2,Osman Salmanov,Осман Салманов,M,Raw,Open,24,100,96.3,225,232.5,,232.5,,160,170,-175,170,,250,265,-272.5,265,,667.5,SBD
3,Saydulla-Efendiy Sadenov,Сайдулла-Эфендий Саденов,M,Raw,Open,58,100,96.8,170,182.5,202.5,202.5,,110,122.5,127.5,127.5,,225,227.5,,227.5,,557.5,SBD
4,Vladimir Fedorenko,Владимир Федоренко,M,Raw,Open,26,100,96.7,190,200,-210,200,,120,127.5,-130,127.5,,195,210,220,220,,547.5,SBD
1,Saydulla-Efendiy Sadenov,Сайдулла-Эфендий Саденов,M,Raw,Masters 50-59,58,100,96.8,170,182.5,202.5,202.5,,110,122.5,127.5,127.5,,225,227.5,,227.5,,557.5,SBD
2,Murat Dzhaytabarov,Мурат Джайтабаров,M,Raw,Masters 50-59,53,100,98.7,130,150,180,180,,145,-147.5,152.5,152.5,,130,,,130,,462.5,SBD
DQ,Vladimir Unezhev,Владимир Унежев,M,Raw,Masters 60-69,65,100,97.7,-140,-140,-140,,,,,,,,,,,,,,SBD
1,Sergey Kazubskiy,Сергей Казубский,M,Raw,Open,37,110,102.3,140,150,170,170,,120,130,142.5,142.5,,120,,,120,,432.5,SBD
1,Marat Dzhaylaubaev,Марат Джайлаубаев,M,Raw,Masters 60-69,61,110,102.5,130,150,170,170,,135,-145,-150,135,,150,170,190,190,,495,SBD
1,Denis Astakhov,Денис Астахов,M,Raw,Open,33,125,115.3,290,305,-315,305,,-145,145,155,155,,290,302.5,-305,302.5,,762.5,SBD
2,Magomedmurad Magomedov,Магомедмурад Магомедов,M,Raw,Open,44,125,123.8,250,260,270,270,,-192.5,195,-202.5,195,,270,290,-300,290,,755,SBD
3,Dmitriy Efimenko,Дмитрий Ефименко,M,Raw,Open,26,125,120.6,200,215,-225,215,,150,160,-165,160,,-245,260,270,270,,645,SBD
1,Magomedmurad Magomedov,Магомедмурад Магомедов,M,Raw,Masters 40-49,44,125,123.8,250,260,270,270,,-192.5,195,-202.5,195,,270,290,-300,290,,755,SBD
1,Andrey Shishkin,Андрей Шишкин,M,Raw,Masters 50-59,55,125,113.7,175,215,225,225,,105,125,-130,125,,205,245,260,260,,610,SBD
DQ,Ankhbayar Damdin,Анхбаяр Дамдин,M,Raw,Open,38,140,137.6,-240,-240,-240,,,,,,,,,,,,,,SBD
1,Viktoriya Blokhina,Виктория Блохина,F,Raw,Open,29,60,57.6,70,75,80,80,,35,-40,-40,35,,80,85,90,90,,205,SBD
1,Valeriya Sivakova,Валерия Сивакова,F,Raw,Open,27,75,68.5,117.5,120,127.5,127.5,,60,65,-70,65,,130,140,-145,140,,332.5,SBD
DQ,Birgit Andersch,,F,Raw,Open,37,75,73.4,160,170,-180,170,,,,,,,,,,,,,SBD
1,Kirill Litvinov,Кирилл Литвинов,M,Raw,Teen 14-16,15,67.5,65.4,150,-160,160,160,,70,80,90,90,,180,200,220,220,,470,SBD
1,Kirill Litvinov,Кирилл Литвинов,M,Raw,Open,15,67.5,65.4,150,-160,160,160,,70,80,90,90,,180,200,220,220,,470,SBD
2,Anton Salin,Антон Салин,M,Raw,Open,30,67.5,65.7,100,105,110,110,,80,85,-90,85,,150,165,170,170,,365,SBD
DQ,Nikolay Kavkaev,Николай Кавкаев,M,Raw,Open,24,75,72.1,,,,,,,,,,,,,,,,,SBD
1,Nikita Pokazanov,Никита Показанов,M,Raw,Sub-Juniors 17-19,19,82.5,80.2,195,205,220,220,,180,190,-197.5,190,,200,220,240,240,,650,SBD
DQ,Pavel Tushin,Павел Тушин,M,Raw,Sub-Juniors 17-19,19,90,88.6,,,,,,,,,,,,,,,,,SBD
1,Aleksey Ishin,Алексей Ишин,M,Raw,Juniors 20-23,22,90,88.4,220,-230,230,230,,150,155,162.5,162.5,,260,275,285,285,,677.5,SBD
2,Kirill Kotov,Кирилл Котов,M,Raw,Juniors 20-23,23,90,88.7,180,200,220,220,,145,155,-160,155,,-242.5,252.5,-272.5,252.5,,627.5,SBD
3,Pavel Korovin,Павел Коровин,M,Raw,Juniors 20-23,22,90,88.5,190,205,215,215,,130,145,155,155,,215,230,-245,230,,600,SBD
1,Pavel Shvetsov,Павел Швецов,M,Raw,Open,27,90,85.7,240,250,255,255,,165,180,182.5,182.5,,270,290,-297.5,290,,727.5,SBD
2,Aleksandr Makarov,Александр Макаров,M,Raw,Open,34,90,88,240,255,-260,255,,175,185,192.5,192.5,,270,-285,-287.5,270,,717.5,SBD
3,Sergey Surkov,Сергей Сурков,M,Raw,Open,32,90,89.4,205,215,-222.5,215,,165,175,182.5,182.5,,-250,265,-275,265,,662.5,SBD
1,Vyacheslav Bondarev,Вячеслав Бондарев,M,Raw,Masters 40-49,49,90,88.7,170,180,,180,,145,155,,155,,210,220,,220,,555,SBD
1,Aleksandr Lopyrev,Александр Лопырев,M,Raw,Juniors 20-23,22,100,92.3,190,210,-230,210,,170,180,190,190,,250,270,-280,270,,670,SBD
1,Pavel Karagashev,Павел Карагашев,M,Raw,Open,29,100,97,285,295,305,305,,182.5,-187.5,190,190,,300,-315,320,320,,815,SBD
2,Umar Iniev,Умар Иниев,M,Raw,Open,31,100,99.7,285,295,302.5,302.5,,195,205,,205,,290,305,-310,305,,812.5,SBD
3,Valeriy Kosterin,Валерий Костерин,M,Raw,Open,26,100,100,220,-230,-230,220,,185,190,192.5,192.5,,-285,-295,300,300,,712.5,SBD
4,Roman Koltsov,Роман Кольцов,M,Raw,Open,25,100,98.8,270,-290,-290,270,,140,-160,160,160,,280,-300,,280,,710,SBD
5,Vladimir Grigorev,Владимир Григорьев,M,Raw,Open,31,100,99,150,,,150,,172.5,180,-185,180,,285,-300,-300,285,,615,SBD
6,Aleksandr Shkaratin,Александр Шкаратин,M,Raw,Open,28,100,97.3,160,180,-200,180,,110,-120,-120,110,,170,190,207.5,207.5,,497.5,SBD
1,Aleksandr Litvinov,Александр Литвинов,M,Raw,Masters 40-49,41,100,99.9,230,-240,-240,230,,160,175,180,180,,240,250,-260,250,,660,SBD
2,Vladimir Lopyrev,Владимир Лопырев,M,Raw,Masters 40-49,45,100,94.4,180,200,220,220,,170,175,-180,175,,220,240,-250,240,,635,SBD
3,Andrey Sheynin,Андрей Шейнин,M,Raw,Masters 40-49,44,100,94.4,140,-150,150,150,,130,-135,-135,130,,210,220,230,230,,510,SBD
1,Vyacheslav Nevzorov,Вячеслав Невзоров,M,Raw,Juniors 20-23,22,110,106.4,250,270,280,280,,170,185,190,190,,250,280,290,290,,760,SBD
DQ,Aldiyar Erlan,Алдияр Ерлан,M,Raw,Juniors 20-23,22,110,108.1,230,250,-270,250,,180,-192.5,,180,,-230,,,,,,SBD
1,Eduard Kabdeshev,Эдуард Кабдешев,M,Raw,Open,28,110,109.7,240,260,270,270,,200,217.5,-225,217.5,,-280,280,300,300,,787.5,SBD
2,Yuriy Samsonov,Юрий Самсонов,M,Raw,Open,35,110,107.2,240,250,260,260,,185,195,205,205,,245,250,260,260,,725,SBD
3,David Sichinava,Давид Сичинава,M,Raw,Open,26,110,103.5,-215,220,-225,220,,165,170,-172.5,170,,260,270,,270,,660,SBD
1,Dmitriy Pys,Дмитрий Пысь,M,Raw,Open,31,125,124,320,340,,340,,220,-230,230,230,,320,-335,-335,320,,890,SBD
1,Vagif Imamguseynov,Вагиф Имамгусейнов,M,Raw,Open,33,140,125.4,250,265,-275,265,,200,210,220,220,,285,295,305,305,,790,SBD
1,Aleksandr Pirogov #2,Александр Пирогов,M,Raw,Open,33,140+,143.3,330,355,-370,355,,230,245,-255,245,,-330,340,360,360,,960,SBD
2,Ibragim Makhmudov,Ибрагим Махмудов,M,Raw,Open,34,140+,140.1,-245,255,262.5,262.5,,-175,182.5,190,190,,275,282.5,,282.5,,735,SBD
1,Margarita Lisoboy,Маргарита Лисобой,F,Wraps,Juniors 20-23,23,44,43.8,65,70,75,75,,45,47.5,-50,47.5,,110,115,120,120,,242.5,SBD
1,Margarita Lisoboy,Маргарита Лисобой,F,Wraps,Open,23,44,43.8,65,70,75,75,,45,47.5,-50,47.5,,110,115,120,120,,242.5,SBD
DQ,Olga Kulikova,Ольга Куликова,F,Wraps,Youth,13,48,45.8,-57.5,-57.5,-57.5,,,,,,,,,,,,,,SBD
1,Irina Belousova,Ирина Белоусова,F,Wraps,Open,39,48,46,90,100,-105,100,,42.5,45,-47.5,45,,110,115,-120,115,,260,SBD
1,Irina Bizyaeva,Ирина Бизяева,F,Wraps,Juniors 20-23,21,52,50.5,-100,100,-110,100,,55,60,-65,60,,90,100,-110,100,,260,SBD
2,Sofiya Shelestova,София Шелестова,F,Wraps,Juniors 20-23,23,52,51.5,82.5,92.5,97.5,97.5,,40,45,-47.5,45,,85,92.5,-97.5,92.5,,235,SBD
1,Valentina Tarasova,Валентина Тарасова,F,Wraps,Open,42,52,50.4,-110,110,-115,110,,70,-75,-75,70,,120,125,130,130,,310,SBD
2,Inna Ozernyuk,Инна Озернюк,F,Wraps,Open,28,52,52,100,-105,105,105,,40,45,-47.5,45,,105,112.5,117.5,117.5,,267.5,SBD
1,Olga Kasyan,Ольга Касьян,F,Wraps,Masters 40-49,40,52,50.6,75,-80,-80,75,,47.5,50,52.5,52.5,,-90,90,95,95,,222.5,SBD
1,Ekaterina Dudareva,Екатерина Дударева,F,Wraps,Open,23,56,55.1,115,-120,-120,115,,80,85,-87.5,85,,120,130,-135,130,,330,SBD
2,Anastasiya Kiseleva,Анастасия Киселева,F,Wraps,Open,23,56,55.5,-100,110,-117.5,110,,-60,60,-65,60,,100,-110,-110,100,,270,SBD
3,Ella Unashkhotleva,Элла Унашхотлева,F,Wraps,Open,34,56,54.6,-90,100,-110,100,,42.5,47.5,50,50,,87.5,92.5,100,100,,250,SBD
1,Olga Ryzhikova,Ольга Рыжикова,F,Wraps,Masters 40-49,42,56,53,90,-105,105,105,,55,60,-62.5,60,,110,125,130,130,,295,SBD
1,Veronika Akulova,Вероника Акулова,F,Wraps,Juniors 20-23,20,60,58.6,135,145,-155,145,,-60,62.5,67.5,67.5,,100,110,120,120,,332.5,SBD
1,Yana Petelova,Яна Петелова,F,Wraps,Open,27,60,59,-130,130,-140,130,,62.5,67.5,70,70,,112.5,-123,133,133,,333,SBD
2,Mariya Usoltseva,Мария Усольцева,F,Wraps,Open,29,60,58.9,120,-125,-125,120,,50,-55,57.5,57.5,,115,-120,-120,115,,292.5,SBD
3,Ekaterina Lyashevskaya,Екатерина Ляшевская,F,Wraps,Open,27,60,58.9,100,105,-110,105,,40,42.5,-45,42.5,,110,-120,120,120,,267.5,SBD
4,Arus Tokhunts,Арус Тохунц,F,Wraps,Open,27,60,59.5,95,-102.5,-102.5,95,,47.5,-52.5,-52.5,47.5,,100,107.5,112.5,112.5,,255,SBD
1,Viktoriya Yakovenko,Виктория Яковенко,F,Wraps,Juniors 20-23,22,67.5,64.8,100,-112.5,-112.5,100,,60,-65,65,65,,100,122.5,130,130,,295,SBD
1,Karina Bilimikhova,Карина Билимихова,F,Wraps,Open,29,67.5,65.9,-115,115,120,120,,65,-70,-70,65,,120,125,130,130,,315,SBD
2,Marina Klimova,Марина Климова,F,Wraps,Open,39,67.5,66,110,-120,-120,110,,55,57.5,60,60,,110,120,-127.5,120,,290,SBD
3,Tatyana Farrafutdinova,Татьяна Фаррафутдинова,F,Wraps,Open,34,67.5,66.3,95,105,107.5,107.5,,47.5,52.5,-55,52.5,,87.5,-97.5,102.5,102.5,,262.5,SBD
1,Anna Rapoport,Анна Рапопорт,F,Wraps,Masters 40-49,46,67.5,67.2,95,100,-105,100,,52.5,57.5,-60,57.5,,-120,120,-130,120,,277.5,SBD
1,Yuliya Gutsu,Юлия Гуцу,F,Wraps,Juniors 20-23,22,75,72.4,-95,95,102.5,102.5,,45,-50,50,50,,115,-117.5,-117.5,115,,267.5,SBD
1,Maksims Grinbergs,,M,Wraps,Youth,13,60,59.6,105,112.5,120,120,,55,60,62.5,62.5,,127.5,135,-140,135,,317.5,SBD
DQ,Artyom Piven,Артём Пивень,M,Wraps,Teen 14-16,16,60,59.3,-145,-145,-145,,,,,,,,,,,,,,SBD
1,Stanislav Vanyukhanov,Станислав Ванюханов,M,Wraps,Juniors 20-23,21,60,59.5,150,-160,-160,150,,100,-105,-105,100,,160,-170,170,170,,420,SBD
2,Batdorzh Batkhuyag,Батдорж Батхуяг,M,Wraps,Juniors 20-23,22,60,56.4,130,-145,145,145,,75,80,-85,80,,170,180,-187.5,180,,405,SBD
DQ,Artyom Piven,Артём Пивень,M,Wraps,Open,16,60,59.3,-145,-145,-145,,,,,,,,,,,,,,SBD
1,Danila Ganzha,Данила Ганжа,M,Wraps,Teen 14-16,16,67.5,61.4,120,130,140,140,,70,75,80,80,,110,120,130,130,,350,SBD
1,Yulian Strochenkov,Юлиан Строченков,M,Wraps,Sub-Juniors 17-19,18,67.5,67.1,190,205,215,215,,110,115,-120,115,,225,235,-242.5,235,,565,SBD
1,Freddy Sosin,,M,Wraps,Juniors 20-23,22,67.5,64.4,222.5,230,-235,230,,120,-125,125,125,,207.5,215,-222.5,215,,570,SBD
1,Freddy Sosin,,M,Wraps,Open,22,67.5,64.4,222.5,230,-235,230,,120,-125,125,125,,207.5,215,-222.5,215,,570,SBD
2,Yulian Strochenkov,Юлиан Строченков,M,Wraps,Open,18,67.5,67.1,190,205,215,215,,110,115,-120,115,,225,235,-242.5,235,,565,SBD
3,Sarantuyaa Zidaabazar,Сарантуяа Зидаабазар,M,Wraps,Open,28,67.5,65.4,-130,-130,130,130,,50,57.5,-62.5,57.5,,110,140,-160,140,,327.5,SBD
1,Egor Selikhov,Егор Селихов,M,Wraps,Juniors 20-23,20,75,73.1,250,260,-270,260,,120,130,-140,130,,220,-242.5,242.5,242.5,,632.5,SBD
2,Sarankhuu Bayanmunkh,,M,Wraps,Juniors 20-23,22,75,73.6,195,-207.5,207.5,207.5,,-135,135,-140,135,,-215,215,-230,215,,557.5,SBD
1,Egor Selikhov,Егор Селихов,M,Wraps,Open,20,75,73.1,250,260,-270,260,,120,130,-140,130,,220,-242.5,242.5,242.5,,632.5,SBD
2,Dmitriy Pleskach,Дмитрий Плескач,M,Wraps,Open,29,75,74.5,225,-235,235,235,,125,132.5,135,135,,225,235,242.5,242.5,,612.5,SBD
3,Sergey Chetvergov,Сергей Четвергов,M,Wraps,Open,30,75,74,190,205,210,210,,120,130,-137.5,130,,-220,220,-230,220,,560,SBD
4,Nikita Sharafetdinov,Никита Шарафетдинов,M,Wraps,Open,25,75,74.2,205,212.5,220,220,,127.5,-132.5,-132.5,127.5,,180,190,-200,190,,537.5,SBD
5,Maksim Rumyantsev,Максим Румянцев,M,Wraps,Open,24,75,72.4,200,-205,,200,,110,115,-120,115,,190,200,,200,,515,SBD
6,Ayk Andriasyan,Айк Андриасян,M,Wraps,Open,16,75,74.1,190,-210,-210,190,,110,-120,-120,110,,170,185,-190,185,,485,SBD
DQ,Batbold Batsukh,Батболд Батсух,M,Wraps,Open,29,75,74.2,-200,-200,-200,,,,,,,,,,,,,,SBD
DQ,Alder Zhaksybekov,Альдер Жаксыбеков,M,Wraps,Masters 40-49,43,75,72.4,-140,-140,-140,,,,,,,,,,,,,,SBD
1,Aleksandr Glubshev,Александр Глубшев,M,Wraps,Masters 50-59,51,75,74.2,170,-180,180,180,,115,120,125,125,,200,215,-220,215,,520,SBD
1,Valeriy Khomenko,Валерий Хоменко,M,Wraps,Masters 60-69,66,75,73.6,130,140,150,150,,80,85,90,90,,180,200,210,210,,450,SBD
1,Danila Dzhumaev,Данила Джумаев,M,Wraps,Teen 14-16,14,82.5,78.2,110,120,132.5,132.5,,67.5,75,,75,,110,120,130,130,,337.5,SBD
1,Muhammad-Ali Mirzoev,Мухаммад-Али Мирзоев,M,Wraps,Sub-Juniors 17-19,18,82.5,82.5,150,-170,170,170,,-130,130,140,140,,165,180,195,195,,505,SBD
1,Otgonbaatar Batbold,Отгонбаатар Батболд,M,Wraps,Juniors 20-23,21,82.5,81.4,205,-215,-215,205,,107.5,110,-115,110,,205,210,225,225,,540,SBD
2,Erkhambayar Erdenetuyama,Эрхамбаяр Эрдэнэтуяма,M,Wraps,Juniors 20-23,20,82.5,78.2,190,195,200,200,,115,122.5,-130,122.5,,180,-190,-190,180,,502.5,SBD
3,Mikhail Lebedev,Михаил Лебедев,M,Wraps,Juniors 20-23,21,82.5,77.7,-175,175,180,180,,-105,110,-112.5,110,,170,177.5,190,190,,480,SBD
1,Vasiliy Perov,Василий Перов,M,Wraps,Open,38,82.5,82,250,260,-270,260,,150,157.5,162.5,162.5,,250,260,267.5,267.5,,690,SBD
2,Oleg Prygunov,Олег Прыгунов,M,Wraps,Open,27,82.5,80.4,195,210,-215,210,,140,145,-150,145,,215,225,-237.5,225,,580,SBD
3,Artem Gusev,Артем Гусев,M,Wraps,Open,24,82.5,81.2,220,-225,-227.5,220,,120,125,-127.5,125,,-220,220,235,235,,580,SBD
DQ,Aleksey Dvuzhilov,Алексей Двужилов,M,Wraps,Open,28,82.5,80.9,-232.5,-232.5,-232.5,,,,,,,,,,,,,,SBD
1,Yuriy Efremov,Юрий Ефремов,M,Wraps,Masters 40-49,45,82.5,80.4,210,-220,-220,210,,165,-175,-175,165,,215,225,230,230,,605,SBD
2,Byambatogtokh Sharavdorzh,Бямбатогтох Шаравдорж,M,Wraps,Masters 40-49,45,82.5,82.4,200,212.5,-225,212.5,,115,122.5,127.5,127.5,,220,227.5,242.5,242.5,,582.5,SBD
3,Sergey Prokofev,Сергей Прокофьев,M,Wraps,Masters 40-49,44,82.5,81,210,-220,-220,210,,140,-145,-145,140,,220,225,230,230,,580,SBD
1,Ilya Salvadov,Илья Сальвадов,M,Wraps,Juniors 20-23,21,90,88.3,220,232.5,-240,232.5,,145,150,155,155,,200,220,235,235,,622.5,SBD
1,Ariunbaatar Sharavdorj,,M,Wraps,Open,35,90,88.8,270,290,-300,290,,162.5,170,,170,,252.5,262.5,270,270,,730,SBD
2,Gansukh Myagmar,,M,Wraps,Open,32,90,87.6,180,200,207.5,207.5,,150,160,167.5,167.5,,180,200,207.5,207.5,,582.5,SBD
3,Roman Seregin,Роман Серегин,M,Wraps,Open,27,90,88.1,180,195,205,205,,130,137.5,142.5,142.5,,200,-215,215,215,,562.5,SBD
4,Ivan Zotov,Иван Зотов,M,Wraps,Open,33,90,88.7,180,195,-205,195,,140,-147.5,-147.5,140,,-205,205,220,220,,555,SBD
5,Roman Kazak,Роман Казак,M,Wraps,Open,33,90,89.1,180,200,-215,200,,120,125,-127.5,125,,170,180,-190,180,,505,SBD
6,Andrey Dragunov,Андрей Драгунов,M,Wraps,Open,24,90,85.7,170,180,-200,180,,-90,90,100,100,,180,200,215,215,,495,SBD
DQ,Leonid Tarkov,Леонид Тарков,M,Wraps,Open,36,90,86.8,-220,-225,-225,,,,,,,,,,,,,,SBD
1,Yuriy Marenkov,Юрий Маренков,M,Wraps,Masters 40-49,40,90,88.2,-180,180,210,210,,140,-150,150,150,,180,202.5,-210,202.5,,562.5,SBD
1,Yuriy Kulikov,Юрий Куликов,M,Wraps,Masters 50-59,58,90,85.8,120,130,140,140,,105,-115,115,115,,160,170,,170,,425,SBD
DQ,Aleksey Tushin,Алексей Тушин,M,Wraps,Masters 50-59,53,90,89,-180,-190,-190,,,,,,,,,,,,,,SBD
1,Andrey Mayorshin,Андрей Майоршин,M,Wraps,Sub-Juniors 17-19,17,100,99.4,215,-225,230,230,,140,-147.5,-147.5,140,,217.5,230,240,240,,610,SBD
1,Andrey Alekseev,Андрей Алексеев,M,Wraps,Juniors 20-23,20,100,92.2,190,-205,205,205,,120,127.5,-132.5,127.5,,-190,195,-205,195,,527.5,SBD
1,Altanbagana Shavardorzh,Алтанбагана Шавардорж,M,Wraps,Open,27,100,97.4,-290,300,-310,300,,190,-200,-200,190,,250,265,275,275,,765,SBD
2,Murad Mallaev,Мурад Маллаев,M,Wraps,Open,31,100,97.7,-270,-270,270,270,,160,-170,-170,160,,-250,260,-270,260,,690,SBD
3,Munkhbaatar Baasandorj,,M,Wraps,Open,35,100,95.2,-250,-250,260,260,,150,165,172.5,172.5,,240,250,-260,250,,682.5,SBD
4,Sergey Klyauzov,Сергей Кляузов,M,Wraps,Open,27,100,93.4,235,250,-260,250,,140,145,150,150,,250,-260,265,265,,665,SBD
5,Petr Ulzutuev,Петр Ульзутуев,M,Wraps,Open,30,100,97.9,220,230,-235,230,,160,165,-170,165,,240,250,-260,250,,645,SBD
6,Gleb Zubakov,Глеб Зубаков,M,Wraps,Open,26,100,96.6,-200,200,-210,200,,125,132.5,137.5,137.5,,220,235,-245,235,,572.5,SBD
7,Nikolay Bredikhin,Николай Бредихин,M,Wraps,Open,25,100,97.1,180,-200,-200,180,,-110,110,-122.5,110,,160,,,160,,450,SBD
1,Munkherdene Zunduy,Мунхэрдэнэ Зундуй,M,Wraps,Masters 40-49,40,100,97.1,-200,200,215,215,,167.5,175,-182.5,175,,-190,210,220,220,,610,SBD
1,Savarbek Yandiev,Саварбек Яндиев,M,Wraps,Masters 50-59,56,100,96.8,190,-195,195,195,,120,125,130,130,,210,225,240,240,,565,SBD
2,Murat Dzhaytabarov,Мурат Джайтабаров,M,Wraps,Masters 50-59,53,100,98.7,130,150,180,180,,145,-147.5,152.5,152.5,,130,,,130,,462.5,SBD
1,Dmitriy Runov,Дмитрий Рунов,M,Wraps,Juniors 20-23,23,110,102.8,220,-235,235,235,,160,170,172.5,172.5,-177.5,220,240,-250,240,,647.5,SBD
1,Gansukh Batmagnai,,M,Wraps,Open,29,110,107.5,290,310,320,320,,205,212.5,-217.5,212.5,,270,-285,-285,270,,802.5,SBD
2,Vasiliy Mitrofanov,Василий Митрофанов,M,Wraps,Open,30,110,109.2,270,290,-300,290,,170,185,195,195,,260,275,-285,275,,760,SBD
3,Aleksandr Merkurev,Александр Меркурьев,M,Wraps,Open,31,110,107.5,-255,255,-270,255,,170,175,-180,175,,-280,280,-285,280,,710,SBD
4,Aleksandr Rodionov,Александр Родионов,M,Wraps,Open,34,110,109,235,250,-260,250,,150,-160,-160,150,,245,260,-270,260,,660,SBD
5,Sergey Frolov,Сергей Фролов,M,Wraps,Open,31,110,102.9,-220,225,230,230,,150,160,-170,160,,220,230,240,240,,630,SBD
1,Otgonmuhkh Pagvaasurer,,M,Wraps,Masters 40-49,44,110,106.4,210,230,240,240,,170,180,-195,180,,230,250,260,260,,680,SBD
2,Vitaliy Komarchuk,Виталий Комарчук,M,Wraps,Masters 40-49,40,110,102,230,250,-260,250,,150,160,162.5,162.5,,200,220,225,225,,637.5,SBD
3,Dmitriy Zharkov,Дмитрий Жарков,M,Wraps,Masters 40-49,47,110,101.3,180,190,200,200,,160,170,175,175,,150,160,170,170,,545,SBD
1,Nikita Romov,Никита Ромов,M,Wraps,Teen 14-16,16,125,117.9,210,225,245,245,,140,145,150,150,,225,240,-255,240,,635,SBD
1,Ugtakhbayar Khurelchuluun,Угтахбаяр Хурэлчулуун,M,Wraps,Open,28,125,119.1,280,-300,-310,280,,190,-202.5,205,205,,262.5,275,282.5,282.5,,767.5,SBD
2,Levon Trdatyan,Левон Трдатьян,M,Wraps,Open,36,125,117.7,275,-295,295,295,,170,180,-190,180,,260,275,-292.5,275,,750,SBD
3,Sergey Golovkov,Сергей Головков,M,Wraps,Open,36,125,123.5,-260,260,280,280,,165,175,-182.5,175,,280,292.5,-297.5,292.5,,747.5,SBD
4,Anatoliy Milyoshkin,Анатолий Милёшкин,M,Wraps,Open,40,125,114.7,260,280,-300,280,,160,170,-180,170,,230,240,-245,240,,690,SBD
1,Anatoliy Milyoshkin,Анатолий Милёшкин,M,Wraps,Masters 40-49,40,125,114.7,260,280,-300,280,,160,170,-180,170,,230,240,-245,240,,690,SBD
1,Vladimir Polivanov,Владимир Поливанов,M,Wraps,Masters 50-59,54,125,122.5,170,190,-210,190,,145,160,170,170,,200,220,240,240,,600,SBD
2,Molovjamts Pagvaasuren,,M,Wraps,Masters 50-59,50,125,113.9,150,,,150,,170,180,-195,180,,170,,,170,,500,SBD
1,Ankhbayar Damdin,Анхбаяр Дамдин,M,Wraps,Open,38,140,137.6,270,300,-320,300,,205,215,-222.5,215,,250,,,250,,765,SBD
1,Zorigtbaatar Erdenebat,Зоригтбаатар Эрдэнэбат,M,Wraps,Open,35,140+,141.6,330,350,370,370,,225,235,-240,235,,300,,,300,,905,SBD
DQ,Konstantin Kukharchuk,Константин Кухарчук,M,Wraps,Open,30,140+,145.1,-245,-245,-245,,,,,,,,,,,,,,SBD
1,Mariya Pyrina,Мария Пырина,F,Wraps,Juniors 20-23,20,52,48.7,70,-80,-80,70,,-35,35,-40,35,,80,85,-90,85,,190,SBD
DQ,Evgeniya Artamonova,Евгения Артамонова,F,Wraps,Juniors 20-23,22,56,56,-110,-110,-110,,,,,,,,,,,,,,SBD
1,Anna Radyuk,Анна Радюк,F,Wraps,Open,24,60,60,-160,160,-170,160,,87.5,95,-100,95,,155,165,172.5,172.5,,427.5,SBD
1,Yana Vasyuk,Яна Васюк,F,Wraps,Juniors 20-23,22,67.5,62.7,130,-145,-150,130,,45,50,-55,50,,120,130,140,140,,320,SBD
1,Valentina Kharina,Валентина Харина,F,Wraps,Open,39,67.5,65.3,140,-150,-150,140,,100,105,107.5,107.5,,140,150,155,155,,402.5,SBD
2,Viktoriya Epikhina,Виктория Епихина,F,Wraps,Open,26,67.5,64,125,135,145,145,,-82.5,87.5,-92.5,87.5,,147.5,155,162.5,162.5,,395,SBD
3,Anastasiya Onishchenko,Анастасия Онищенко,F,Wraps,Open,30,67.5,64.6,130,-140,-140,130,,60,67.5,,67.5,,160,170,-175,170,,367.5,SBD
4,Elena Astakhova,Елена Астахова,F,Wraps,Open,35,67.5,64.8,110,120,130,130,,70,75,-80,75,,145,155,162.5,162.5,,367.5,SBD
1,Marina Morozova,Марина Морозова,F,Wraps,Open,39,75,73.6,-212.5,212.5,-220,212.5,,95,100,105,105,,190,200,-210,200,,517.5,SBD
1,Darya Nesterova,Дарья Нестерова,F,Wraps,Juniors 20-23,23,82.5,80.6,160,175,185,185,,85,92.5,-97.5,92.5,,160,170,-182.5,170,,447.5,SBD
1,Anna Rodnina,Анна Роднина,F,Wraps,Open,33,82.5,77.4,150,160,,160,,92.5,97.5,-100,97.5,,180,-190,-190,180,,437.5,SBD
1,Barel Hanuka,,M,Wraps,Sub-Juniors 17-19,18,67.5,66,160,172.5,182.5,182.5,,82.5,87.5,92.5,92.5,,-185,-185,185,185,203,460,SBD
1,Freddy Sosin,,M,Wraps,Juniors 20-23,22,67.5,66.4,222.5,230,-235,230,,120,-125,125,125,,207.5,215,-222.5,215,,570,SBD
1,Dmitriy Kistanov,Дмитрий Кистанов,M,Wraps,Open,24,67.5,66.6,190,-215,,190,,135,145,150,150,,180,200,220,220,,560,SBD
1,Igor Elovitskiy,Игорь Еловицкий,M,Wraps,Masters 50-59,53,67.5,66.5,130,140,150,150,,95,100,105,105,,160,170,180,180,,435,SBD
1,Mohammed Irfan Ansari,,M,Wraps,Juniors 20-23,22,75,74.3,-205,205,-215,205,,110,120,-125,120,,190,200,-210,200,,525,SBD
1,Petr Kucheryavykh,Петр Кучерявых,M,Wraps,Open,29,75,72.3,210,225,235,235,,-145,-145,145,145,,252.5,272.5,282.5,282.5,,662.5,SBD
2,Denis Shishkin,Денис Шишкин,M,Wraps,Open,34,75,73,220,-235,235,235,,150,157.5,-162.5,157.5,,240,260,270,270,,662.5,SBD
3,Dmitriy Davydov,Дмитрий Давыдов,M,Wraps,Open,27,75,74.6,-165,165,-180,165,,110,120,-130,120,,190,210,230,230,,515,SBD
1,Nikolay Altunin,Николай Алтунин,M,Wraps,Masters 40-49,40,75,74,210,-235,-235,210,,132.5,137.5,-140,137.5,,225,235,242.5,242.5,,590,SBD
2,Chakhar Tumurbaatar,,M,Wraps,Masters 40-49,43,75,74.3,170,190,-215,190,,140,-157.5,-160,140,,160,,,160,,490,SBD
1,Yaroslav Zimin,Ярослав Зимин,M,Wraps,Sub-Juniors 17-19,19,82.5,82.3,-220,220,240,240,,140,147.5,-152.5,147.5,,245,260,-280,260,,647.5,SBD
1,Artem Bortnik,Артем Бортник,M,Wraps,Juniors 20-23,22,82.5,79,250,260,-265,260,,165,175,-180,175,,250,265,272.5,272.5,,707.5,SBD
2,Musa Khashpakov,Муса Хашпаков,M,Wraps,Juniors 20-23,22,82.5,82.5,190,205,-212.5,205,,130,145,-155,145,,210,222.5,230,230,,580,SBD
DQ,Nikolay Shestakov,Николай Шестаков,M,Wraps,Juniors 20-23,21,82.5,82.4,-270,-270,270,270,,155,162.5,167.5,167.5,,-260,-270,-270,,,,SBD
1,Sergey Mik,Сергей Мик,M,Wraps,Open,30,82.5,81.4,250,265,275,275,,155,162.5,170,170,,260,275,280,280,,725,SBD
2,Aleksey Sitnikov,Олексій Ситніков,M,Wraps,Open,29,82.5,79.9,-270,270,280,280,,160,170,175,175,,230,250,267.5,267.5,,722.5,SBD
3,Vyacheslav Chigarev,Вячеслав Чигарев,M,Wraps,Open,27,82.5,82.1,210,-230,,210,,140,150,-155,150,,200,220,230,230,,590,SBD
4,Musa Khashpakov,Муса Хашпаков,M,Wraps,Open,22,82.5,82.5,190,205,-212.5,205,,130,145,-155,145,,210,222.5,230,230,,580,SBD
DQ,Ruslan Klimov,Руслан Климов,M,Wraps,Open,20,82.5,81.7,-280,-280,,,,,,,,,,,,,,,SBD
DQ,Nikolay Shestakov,Николай Шестаков,M,Wraps,Open,21,82.5,82.4,-270,-270,270,270,,155,162.5,167.5,167.5,,-260,-270,-270,,,,SBD
1,Tamir Sadvakasov,Тамир Садвакасов,M,Wraps,Sub-Juniors 17-19,18,90,88.8,250,265,-272.5,265,,120,132.5,-137.5,132.5,,250,260,-270,260,,657.5,SBD
2,Vyacheslav Lazarev,Вячеслав Лазарев,M,Wraps,Sub-Juniors 17-19,19,90,87,210,-230,250,250,,160,170,175,175,,210,-230,-230,210,,635,SBD
3,Miks Spass,,M,Wraps,Sub-Juniors 17-19,19,90,86,200,220,230,230,,130,140,-145,140,,200,215,225,225,,595,SBD
DQ,Yaroslav Zimin,Ярослав Зимин,M,Wraps,Sub-Juniors 17-19,19,90,82.6,-220,-220,-220,,,,,,,,,,,,,,SBD
1,Ramazan Shikhgasanov,Рамазан Шихгасанов,M,Wraps,Juniors 20-23,22,90,89.3,295,305,310,310,,210,-217.5,-217.5,210,,-260,260,-280,260,,780,SBD
1,Artyom Krylov,Артём Крылов,M,Wraps,Open,27,90,87.7,-320,320,-330,320,,175,182.5,187.5,187.5,,300,310,-325,310,,817.5,SBD
2,Sergey Lukyanov,Сергей Лукьянов,M,Wraps,Open,31,90,87,-280,280,-295,280,,180,185,-187.5,185,,310,325,-331,325,,790,SBD
3,Ramazan Shikhgasanov,Рамазан Шихгасанов,M,Wraps,Open,22,90,89.3,295,305,310,310,,210,-217.5,-217.5,210,,-260,260,-280,260,,780,SBD
4,Pavel Lelikov,Павел Леликов,M,Wraps,Open,26,90,86.9,280,-300,-300,280,,160,-170,170,170,,270,-290,,270,,720,SBD
5,Sergey Pakulov,Сергей Пакулов,M,Wraps,Open,28,90,87.6,270,290,-295,290,,-165,-175,175,175,,255,-275,-275,255,,720,SBD
6,Aleksandr Kozlov,Александр Козлов,M,Wraps,Open,23,90,89.2,290,-305,-305,290,,150,157.5,-160,157.5,,-270,270,-282.5,270,,717.5,SBD
7,Stanislav Yarukov,Станислав Яруков,M,Wraps,Open,27,90,89.2,210,220,-230,220,,140,-147.5,-147.5,140,,275,290,-302.5,290,,650,SBD
8,Nikolay Fedoseev,Николай Федосеев,M,Wraps,Open,26,90,86.5,235,-250,-250,235,,-150,150,155,155,,235,245,-250,245,,635,SBD
1,Vyacheslav Bondarev,Вячеслав Бондарев,M,Wraps,Masters 40-49,49,90,89,190,-200,-210,190,,162.5,,,162.5,,240,,,240,,592.5,SBD
DQ,Dmitriy Martyuchenko,Дмитрий Мартюченко,M,Wraps,Masters 40-49,44,90,84.5,-200,-215,-215,,,,,,,,,,,,,,SBD
1,Konstantin Dremenkov,Константин Дременков,M,Wraps,Masters 50-59,51,90,86.8,225,-240,-245,225,,150,160,167.5,167.5,,260,275,280,280,,672.5,SBD
1,Nikolay Kuchma,Николай Кучма,M,Wraps,Sub-Juniors 17-19,17,100,94.2,180,195,205,205,,90,100,110,110,,210,225,-230,225,,540,SBD
1,Artyom Zharkov,Артём Жарков,M,Wraps,Juniors 20-23,20,100,98.1,240,260,-270,260,,130,-145,150,150,,260,287.5,300,300,,710,SBD
2,Aleksey Golokha,Алексей Голоха,M,Wraps,Juniors 20-23,20,100,97.8,235,-252.5,252.5,252.5,,170,-175,175,175,,250,-270,-270,250,,677.5,SBD
1,Aleksandr Denisov,Александр Денисов,M,Wraps,Open,25,100,94.2,-350,350,370,370,,190,200,210,210,,-320,330,-350,330,,910,SBD
2,Igor Matsko,Игорь Мацько,M,Wraps,Open,24,100,99,320,335,-345,335,,205,-210,-210,205,,330,-340,,330,,870,SBD
3,Timur Kozyr,Тимур Козырь,M,Wraps,Open,29,100,97.2,300,315,-320,315,,210,217.5,225,225,,300,305,-307.5,305,,845,SBD
4,Bulat Gabdrakhmanov,Булат Габдрахманов,M,Wraps,Open,27,100,97.2,290,305,315,315,,155,-165,170,170,,315,327.5,-342.5,327.5,,812.5,SBD
5,Aleksey Zinurov,Алексей Зинуров,M,Wraps,Open,29,100,97.6,280,300,-320,300,,200,205,-207.5,205,,295,-305,305,305,,810,SBD
6,Dániel Budai,,M,Wraps,Open,26,100,97.5,290,-315,-320,290,,-205,215,222.5,222.5,,280,-300,-300,280,,792.5,SBD
7,Dmitriy Chernyshyov,Дмитрий Чернышёв,M,Wraps,Open,38,100,96.9,265,-270,270,270,,175,185,-190,185,,275,290,-300,290,,745,SBD
8,Aleksandr Shmonin,Александр Шмонин,M,Wraps,Open,31,100,98.2,270,280,-290,280,,160,167.5,170,170,,250,260,270,270,,720,SBD
9,Aleksandr Kuznetsov,Александр Кузнецов,M,Wraps,Open,39,100,96.9,250,-270,270,270,,150,160,-165,160,,-240,245,250,250,,680,SBD
10,Pavel Slichenko,Павел Сличенко,M,Wraps,Open,34,100,97.3,-255,255,-260,255,,150,-160,-160,150,,230,250,270,270,,675,SBD
11,Salazar Saul,,M,Wraps,Open,53,100,97.4,220,240,260,260,,135,145,-155,145,,230,250,270,270,-280,675,SBD
12,Konstantin Glebov,Константин Глебов,M,Wraps,Open,29,100,98.9,-220,220,-230,220,,-140,140,-150,140,,-230,-230,230,230,,590,SBD
13,Aleksey Sokolov,Алексей Соколов,M,Wraps,Open,27,100,98.5,215,-225,225,225,,120,130,-137.5,130,,210,220,230,230,,585,SBD
DQ,Vadim Nikitin,Вадим Никитин,M,Wraps,Open,27,100,98.9,-285,-300,-300,,,,,,,,,,,,,,SBD
DQ,Sergey Chalenko,Сергей Чаленко,M,Wraps,Open,25,100,99,-295,-295,-295,,,,,,,,,,,,,,SBD
DQ,Roman Paltsev,Роман Пальцев,M,Wraps,Open,32,100,99,-300,-300,-300,,,,,,,,,,,,,,SBD
1,Dmitriy Chernyshev,Дмитрий Чернышев,M,Wraps,Masters 40-49,43,100,97.8,240,250,260,260,,170,177.5,182.5,182.5,,280,295,305,305,,747.5,SBD
2,Igor Chupryakov,Игорь Чупряков,M,Wraps,Masters 40-49,42,100,98.8,245,-260,260,260,,182.5,190,,190,,250,265,267.5,267.5,,717.5,SBD
3,Aleksandr Saraykin,Александр Сарайкин,M,Wraps,Masters 40-49,40,100,97.5,175,185,-200,185,,130,135,140,140,,205,215,220,220,,545,SBD
1,Salazar Saul,,M,Wraps,Masters 50-59,53,100,97.4,220,240,260,260,,135,145,-155,145,,230,250,270,270,-280,675,SBD
1,Yuriy Pletyukhov,Юрий Плетюхов,M,Wraps,Masters 60-69,62,100,98,195,207.5,220,220,,120,127.5,-132.5,127.5,,210,225,235,235,,582.5,SBD
2,Sergey Makhrov,Сергей Махров,M,Wraps,Masters 60-69,60,100,93.7,185,200,220,220,,120,-130,-130,120,,180,200,225,225,,565,SBD
1,Roman Pokhvatko,Роман Похватько,M,Wraps,Juniors 20-23,22,110,103.9,-320,-340,340,340,,185,192.5,-195,192.5,,325,-337.5,-337.5,325,,857.5,SBD
2,Nikita Yudenkov,Никита Юденков,M,Wraps,Juniors 20-23,20,110,109.1,225,240,250,250,,165,175,180,180,,-285,285,-290,285,,715,SBD
1,Akim Vakhtin,Аким Вахтин,M,Wraps,Open,34,110,107.3,330,-350,-355,330,,180,-190,190,190,,340,350,-360,350,,870,SBD
2,Roman Pokhvatko,Роман Похватько,M,Wraps,Open,22,110,103.9,-320,-340,340,340,,185,192.5,-195,192.5,,325,-337.5,-337.5,325,,857.5,SBD
3,Marat Savosin,Марат Савосин,M,Wraps,Open,27,110,108.8,-330,-330,330,330,,200,210,215,215,,300,-310,-310,300,,845,SBD
4,Aleksandr Sedykh,Александр Седых,M,Wraps,Open,27,110,107.8,325,340,352.5,352.5,,200,210,-217.5,210,,260,-282.5,,260,,822.5,SBD
5,Evgeniy Popov,Евгений Попов,M,Wraps,Open,26,110,109,-250,-260,260,260,,-190,190,-200,190,,280,-290,,280,,730,SBD
6,Andrey Berdnikov,Андрей Бердников,M,Wraps,Open,31,110,105,250,267.5,280,280,,130,137.5,145,145,,265,275,-282.5,275,,700,SBD
7,Pavel Umantsev,Павел Уманцев,M,Wraps,Open,32,110,108.8,-235,235,-250,235,,155,165,-172.5,165,,240,255,-265,255,,655,SBD
1,Roman Rodnin,Роман Роднин,M,Wraps,Masters 40-49,42,110,103.3,255,-262.5,262.5,262.5,,150,-157.5,157.5,157.5,,280,-290,-290,280,,700,SBD
DQ,Viktor Matsur,Виктор Мацур,M,Wraps,Masters 50-59,52,110,108.6,,,,,,,,,,,,,,,,,SBD
1,Samuel Hausberger,,M,Wraps,Juniors 20-23,21,125,116.1,-260,260,-285,260,,190,202.5,210,210,,280,300,-310,300,,770,SBD
1,Viktor Vodovskov,Виктор Водовсков,M,Wraps,Open,35,125,119.3,350,370,-385,370,,170,180,-185,180,,-300,300,330,330,,880,SBD
2,Roman Atanov,Роман Атанов,M,Wraps,Open,44,125,120.6,300,320,335,335,,200,207.5,-212.5,207.5,,300,320,337.5,337.5,,880,SBD
3,Stefan Larch,,M,Wraps,Open,24,125,114.5,310,330,345,345,,185,195,200,200,,290,305,-310,305,,850,SBD
4,Aleksey Averyanov,Алексей Аверьянов,M,Wraps,Open,24,125,119.8,260,275,,275,,170,180,-185,180,,-250,250,-275,250,,705,SBD
5,Anton Balandin,Антон Баландин,M,Wraps,Open,28,125,120.8,210,230,-240,230,,140,150,160,160,,-220,-230,240,240,,630,SBD
DQ,Roman Zavrazhin,Роман Завражин,M,Wraps,Open,26,125,117.7,-290,-290,-290,,,,,,,,,,,,,,SBD
DQ,Anar Omarov,Анар Омаров,M,Wraps,Open,32,125,120.2,-300,-305,-305,,,,,,,,,,,,,,SBD
1,Roman Atanov,Роман Атанов,M,Wraps,Masters 40-49,44,125,120.6,300,320,335,335,,200,207.5,-212.5,207.5,,300,320,337.5,337.5,,880,SBD
2,Aleksandr Romanov,Александр Романов,M,Wraps,Masters 40-49,44,125,115.9,215,227.5,-235,227.5,,175,182.5,-187.5,182.5,,230,245,255,255,,665,SBD
1,Yuriy Suvorov,Юрий Суворов,M,Wraps,Masters 50-59,51,125,115.9,-200,200,210,210,,160,165,170,170,,200,-215,,200,,580,SBD
1,Ivan Niculescu,,M,Wraps,Juniors 20-23,22,140,137.8,255,280,-290,280,,190,205,-207.5,205,,275,300,-310,300,,785,SBD
1,Denis Grebenchenko,Денис Гребенченко,M,Wraps,Open,26,140,134.8,-380,-380,380,380,,240,250,260,260,,320,340,-360,340,,980,SBD
2,Roman Dzyuba,Роман Дзюба,M,Wraps,Open,49,140,130.8,312.5,332.5,350,350,,195,-202.5,207.5,207.5,,305,315,325,325,,882.5,SBD
3,Ivan Niculescu,,M,Wraps,Open,22,140,137.8,255,280,-290,280,,190,205,-207.5,205,,275,300,-310,300,,785,SBD
1,Roman Dzyuba,Роман Дзюба,M,Wraps,Masters 40-49,49,140,130.8,312.5,332.5,350,350,,195,-202.5,207.5,207.5,,305,315,325,325,,882.5,SBD
1,Ganbold Bayandorzh,Ганболд Баяндорж,M,Wraps,Masters 40-49,43,140+,140.7,-140,140,,140,,100,,,100,,140,-200,,140,,380,SBD
1,Margarita Lisoboy,Маргарита Лисобой,F,Raw,Juniors 20-23,23,44,43.8,,,,,,45,47.5,-50,47.5,,110,115,120,120,,167.5,BD
1,Margarita Lisoboy,Маргарита Лисобой,F,Raw,Open,23,44,43.8,,,,,,45,47.5,-50,47.5,,110,115,120,120,,167.5,BD
1,Valentina Tarasova,Валентина Тарасова,F,Raw,Open,42,52,50.4,,,,,,70,-75,-75,70,,120,125,130,130,,200,BD
1,Elena Emelyova,Елена Емелёва,F,Raw,Masters 40-49,41,60,59.1,,,,,,52.5,55,57.5,57.5,,110,-120,-120,110,,167.5,BD
DQ,Elena Konyushenko,Елена Конюшенко,F,Raw,Open,32,75,70.5,,,,,,-77.5,80,85,85,,-140,-145,-150,,,,BD
1,Dinislam Gataev,Динислам Гатаев,M,Raw,Open,21,60,59.2,,,,,,-120,120,-122.5,120,,215,-220,-220,215,,335,BD
1,Sergey Arzhaev,Сергей Аржаев,M,Raw,Open,36,67.5,67.3,,,,,,100,107.5,-110,107.5,,120,130,140,140,,247.5,BD
1,Ruslan Ervasov,Руслан Ервасов,M,Raw,Juniors 20-23,20,75,70.7,,,,,,95,100,-102.5,100,,120,130,140,140,,240,BD
1,Batbold Batsukh,Батболд Батсух,M,Raw,Open,29,75,74.6,,,,,,120,125,127.5,127.5,,215,227.5,232.5,232.5,,360,BD
2,Davit Khambabyan,Давит Хамбабян,M,Raw,Open,28,75,74.1,,,,,,132.5,137.5,-140,137.5,,190,202.5,-205,202.5,,340,BD
3,Aleksey Kozinets,Алексей Козинец,M,Raw,Open,31,75,73,,,,,,110,117.5,122.5,122.5,,180,187.5,,187.5,,310,BD
4,Anton Khristolyubov,Антон Христолюбов,M,Raw,Open,25,75,74.7,,,,,,105,-110,-110,105,,170,190,-197.5,190,,295,BD
1,Alder Zhaksybekov,Альдер Жаксыбеков,M,Raw,Masters 40-49,43,75,72.4,,,,,,95,-102.5,-102.5,95,,130,150,162.5,162.5,,257.5,BD
1,Aleksandr Glubshev,Александр Глубшев,M,Raw,Masters 50-59,51,75,74.2,,,,,,115,120,125,125,,200,215,-220,215,,340,BD
1,Nikolay Obukhov,Николай Обухов,M,Raw,Masters 60-69,64,75,74.2,,,,,,-100,100,-105,100,,170,180,-190,180,,280,BD
1,Aleksey Dvuzhilov,Алексей Двужилов,M,Raw,Open,28,82.5,78.9,,,,,,142.5,-150,155,155,,210,220,-242.5,220,,375,BD
2,Igor Pashkov,Игорь Пашков,M,Raw,Open,31,82.5,80,,,,,,130,135,-137.5,135,,230,235,-242.5,235,,370,BD
3,Luvsandanzan Myanganbaatar,Лувсанданзан Мянганбаатар,M,Raw,Open,24,82.5,82.4,,,,,,110,115,120,120,,-190,190,200,200,,320,BD
4,Ilya Oparin,Илья Опарин,M,Raw,Open,25,82.5,78,,,,,,-100,115,-120,115,,175,185,200,200,,315,BD
1,Aleksandr Semenov,Александр Семенов,M,Raw,Masters 40-49,40,82.5,81.8,,,,,,-112.5,112.5,117.5,117.5,,160,170,175,175,,292.5,BD
2,Furkat Shafiev,Фуркат Шафиев,M,Raw,Masters 40-49,44,82.5,80.7,,,,,,-90,90,-100,90,,90,110,130,130,,220,BD
1,Andrey Ulashchik,Андрей Улащик,M,Raw,Open,34,90,88.8,,,,,,160,-170,170,170,,280,295,322,322,,492,BD
2,Aleksey Sheykin,Алексей Шейкин,M,Raw,Open,29,90,88.3,,,,,,175,-180,180,180,,285,-300,-300,285,,465,BD
3,Gansukh Myagmar,,M,Raw,Open,32,90,87.6,,,,,,150,160,167.5,167.5,,-200,200,210,210,,377.5,BD
1,Vyacheslav Bondarev,Вячеслав Бондарев,M,Raw,Masters 40-49,49,90,88.7,,,,,,145,155,,155,,210,220,,220,,375,BD
1,Vasiliy Leonenko,Василий Леоненко,M,Raw,Masters 50-59,50,90,87,,,,,,120,130,-135,130,,205,215,-225,215,,345,BD
DQ,Aleksey Tushin,Алексей Тушин,M,Raw,Masters 50-59,53,90,89,,,,,,-130,-130,-130,,,,,,,,,BD
1,Grigoriy Tochenyy,Григорий Точеный,M,Raw,Open,25,100,98.5,,,,,,150,155,-162.5,155,,200,210,-215,210,,365,BD
2,Oleg Pecheykin,Олег Печейкин,M,Raw,Open,35,100,99.1,,,,,,130,-140,140,140,,160,170,-175,170,,310,BD
1,Saydulla-Efendiy Sadenov,Сайдулла-Эфендий Саденов,M,Raw,Masters 50-59,58,100,96.8,,,,,,110,122.5,127.5,127.5,,225,227.5,,227.5,,355,BD
1,Ruslan Kulebyakin,Руслан Кулебякин,M,Raw,Open,26,110,108.1,,,,,,170,180,185,185,,250,260,-265,260,,445,BD
2,Mikko Mäntymäki,,M,Raw,Open,46,110,102.3,,,,,,145,150,-155,150,,-230,245,255,255,,405,BD
3,Andrey Rudetskikh,Андрей Рудецких,M,Raw,Open,38,110,104.1,,,,,,142.5,147.5,-150,147.5,,200,210,-215,210,,357.5,BD
DQ,Mikhail Kryukov,Михаил Крюков,M,Raw,Open,26,110,108.5,,,,,,-140,-150,-150,,,,,,,,,BD
1,Dmitriy Zharkov,Дмитрий Жарков,M,Raw,Masters 40-49,47,110,101.3,,,,,,160,170,175,175,,150,160,170,170,,345,BD
1,Ivan Regulyarnyy,Иван Регулярный,M,Raw,Open,32,125,119,,,,,,195,-202.5,202.5,202.5,,275,295,-300,295,,497.5,BD
2,Sergey Oleynikov,Сергей Олейников,M,Raw,Open,36,125,117.8,,,,,,192.5,202.5,-207.5,202.5,,250,275,-290,275,,477.5,BD
1,Anatoliy Milyoshkin,Анатолий Милёшкин,M,Raw,Masters 40-49,40,125,114.7,,,,,,160,170,-180,170,,230,240,-245,240,,410,BD
1,Andrey Shishkin,Андрей Шишкин,M,Raw,Masters 50-59,55,125,113.7,,,,,,105,125,-130,125,,205,245,260,260,,385,BD
1,Ankhbayar Damdin,Анхбаяр Дамдин,M,Raw,Open,38,140,137.6,,,,,,205,215,-222.5,215,,250,,,250,,465,BD
1,Aleksey Shoniya,Алексей Шония,M,Raw,Masters 40-49,47,140,132.3,,,,,,155,165,170,170,,210,230,,230,,400,BD
1,Kirill Litvinov,Кирилл Литвинов,M,Raw,Teen 14-16,15,67.5,65.4,,,,,,70,80,90,90,,180,200,220,220,,310,BD
1,Dmitriy Kistanov,Дмитрий Кистанов,M,Raw,Open,24,67.5,66.6,,,,,,135,145,150,150,,180,200,220,220,,370,BD
1,Artem Latushkin,Артем Латушкин,M,Raw,Open,34,75,73.9,,,,,,105,-110,110,110,,140,150,152.5,152.5,,262.5,BD
1,Andrey Meshcheryakov,Андрей Мещеряков,M,Raw,Masters 50-59,51,75,72.9,,,,,,-105,-105,105,105,,130,150,-170,150,,255,BD
1,Arkadiy Osaulenko,Аркадий Осауленко,M,Raw,Open,30,82.5,78.7,,,,,,135,145,150,150,,200,215,-220,215,,365,BD
1,Aleksey Shchyotkin,Алексей Щёткин,M,Raw,Masters 40-49,42,82.5,80.7,,,,,,-140,145,-150,145,,185,200,-212.5,200,,345,BD
1,Aleksey Ishin,Алексей Ишин,M,Raw,Juniors 20-23,22,90,88.4,,,,,,150,155,162.5,162.5,,260,275,285,285,,447.5,BD
1,Pavel Shvetsov,Павел Швецов,M,Raw,Open,27,90,85.7,,,,,,165,180,182.5,182.5,,270,290,-297.5,290,,472.5,BD
2,Sergey Surkov,Сергей Сурков,M,Raw,Open,32,90,89.4,,,,,,165,175,182.5,182.5,,-250,265,-275,265,,447.5,BD
3,Farhod Hotami,,M,Raw,Open,32,90,86.3,,,,,,140,150,165,165,,185,200,210,210,,375,BD
1,Vyacheslav Bondarev,Вячеслав Бондарев,M,Raw,Masters 40-49,49,90,89,,,,,,150,157.5,162.5,162.5,,220,230,240,240,,402.5,BD
1,Konstantin Dremenkov,Константин Дременков,M,Raw,Masters 50-59,51,90,86.8,,,,,,150,160,167.5,167.5,,260,275,280,280,,447.5,BD
1,Timur Kozyr,Тимур Козырь,M,Raw,Open,29,100,97.2,,,,,,210,217.5,225,225,,300,305,-307.5,305,,530,BD
2,Roman Paltsev,Роман Пальцев,M,Raw,Open,32,100,99,,,,,,210,-220,-220,210,,310,320,,320,,530,BD
3,Maksim Medvedev,Максим Медведев,M,Raw,Open,36,100,99.2,,,,,,185,195,202.5,202.5,,270,-290,290,290,,492.5,BD
4,Sergey Shcherbina,Сергей Щербина,M,Raw,Open,25,100,98.1,,,,,,185,195,,195,,-270,270,-300,270,,465,BD
5,Vladimir Grigorev,Владимир Григорьев,M,Raw,Open,31,100,99,,,,,,172.5,180,-185,180,,285,-300,-300,285,,465,BD
6,Vadim Nikitin,Вадим Никитин,M,Raw,Open,27,100,98.9,,,,,,180,-192.5,-192.5,180,,260,280,-290,280,,460,BD
DQ,Sergey Chalenko,Сергей Чаленко,M,Raw,Open,25,100,99,,,,,,-175,-175,-175,,,,,,,,,BD
1,Aleksandr Litvinov,Александр Литвинов,M,Raw,Masters 40-49,41,100,99.9,,,,,,160,175,180,180,,240,250,-260,250,,430,BD
1,Guseyn Guseynov,Гусейн Гусейнов,M,Raw,Masters 50-59,51,100,98.5,,,,,,160,170,180,180,,200,220,-230,220,,400,BD
1,Yuriy Pletyukhov,Юрий Плетюхов,M,Raw,Masters 60-69,62,100,98,,,,,,120,127.5,-132.5,127.5,,210,225,235,235,,362.5,BD
1,Eduard Kabdeshev,Эдуард Кабдешев,M,Raw,Open,28,110,109.7,,,,,,200,217.5,-225,217.5,,-280,280,300,300,,517.5,BD
2,Evgeniy Nemkevich,Евгений Немкевич,M,Raw,Open,35,110,106,,,,,,135,-145,145,145,,220,230,260,260,,405,BD
3,Said Gamzabekov,Саид Гамзабеков,M,Raw,Open,26,110,102.9,,,,,,150,160,170,170,,150,160,180,180,,350,BD
1,Dmitriy Pys,Дмитрий Пысь,M,Raw,Open,31,125,124,,,,,,220,-230,230,230,,320,-335,-335,320,,550,BD
1,Aleksandr Alekseev,Александр Алексеев,M,Raw,Open,37,140,125.9,,,,,,210,220,225,225,,340,360,370,370,,595,BD
2,Dmitriy Samsonov,Дмитрий Самсонов,M,Raw,Open,24,140,127.4,,,,,,187.5,200,-205,200,,260,275,-285,275,,475,BD
1,Nadezhda Mochalova,Надежда Мочалова,F,Raw,Youth,10,44,37,,,,,,-27.5,30,32.5,32.5,,,,,,,32.5,B
2,Darya Lopyreva,Дарья Лопырева,F,Raw,Youth,12,44,32.6,,,,,,25,27.5,-32.5,27.5,,,,,,,27.5,B
1,Alina Melnikova,Алина Мельникова,F,Raw,Sub-Juniors 17-19,19,48,47.2,,,,,,-60,60,-63,60,,,,,,,60,B
1,Alina Melnikova,Алина Мельникова,F,Raw,Open,19,48,47.2,,,,,,-60,60,-63,60,,,,,,,60,B
2,Tatyana Serova,Татьяна Серова,F,Raw,Open,39,48,45.8,,,,,,40,-45,-45,40,,,,,,,40,B
DQ,Olmaskan Zulpukarova,Олмаскан Зулпукарова,F,Raw,Open,28,48,45.6,,,,,,-47.5,-50,-50,,,,,,,,,B
DQ,Elizavete Barkova,Елизавете Баркова,F,Raw,Open,31,48,47.4,,,,,,-50,-52.5,-52.5,,,,,,,,,B
1,Olga Golovataya,Ольга Головатая,F,Raw,Open,28,52,51.2,,,,,,-75,77.5,-80,77.5,,,,,,,77.5,B
2,Valentina Tarasova,Валентина Тарасова,F,Raw,Open,42,52,50.4,,,,,,70,-75,-75,70,,,,,,,70,B
3,Yuliya Nenartovich,Юлия Ненартович,F,Raw,Open,29,52,50.5,,,,,,52.5,55,-57.5,55,,,,,,,55,B
1,Valentina Tarasova,Валентина Тарасова,F,Raw,Masters 40-49,42,52,50.4,,,,,,70,-75,-75,70,,,,,,,70,B
1,Elina Rikman,Элина Рикман,F,Raw,Sub-Juniors 17-19,18,56,55.6,,,,,,62.5,-67.5,-67.5,62.5,,,,,,,62.5,B
1,Ekaterina Dudareva,Екатерина Дударева,F,Raw,Juniors 20-23,23,56,55.1,,,,,,80,85,-87.5,85,,,,,,,85,B
2,Margarita Mishlova,Маргарита Мишлова,F,Raw,Juniors 20-23,23,56,54.7,,,,,,-67.5,-70,70,70,,,,,,,70,B
3,Valentina Larikova,Валентина Ларикова,F,Raw,Juniors 20-23,20,56,52.5,,,,,,32.5,35,37.5,37.5,,,,,,,37.5,B
1,Ekaterina Dudareva,Екатерина Дударева,F,Raw,Open,23,56,55.1,,,,,,80,85,-87.5,85,,,,,,,85,B
2,Irina Morozova,Ирина Морозова,F,Raw,Open,30,56,55.3,,,,,,72.5,75,-77.5,75,,,,,,,75,B
DQ,Natalya Sidorkina,Наталья Сидоркина,F,Raw,Open,30,56,54.4,,,,,,-55,-55,-55,,,,,,,,,B
DQ,Tatyana Pantyukhova,Татьяна Пантюхова,F,Raw,Open,25,56,55.5,,,,,,-62.5,-62.5,-62.5,,,,,,,,,B
1,Olga Ryzhikova,Ольга Рыжикова,F,Raw,Masters 40-49,42,56,53,,,,,,55,-62.5,-62.5,55,,,,,,,55,B
2,Marina Bakay,Марина Бакай,F,Raw,Masters 40-49,44,56,55.2,,,,,,50,-55,55,55,,,,,,,55,B
1,Anna Libanova,Анна Либанова,F,Raw,Juniors 20-23,23,60,59.3,,,,,,45,52.5,-55,52.5,,,,,,,52.5,B
1,Tatyana Volkova,Татьяна Волкова,F,Raw,Open,37,60,57.1,,,,,,-75,77.5,-82.5,77.5,,,,,,,77.5,B
2,Marina Ivanova,Марина Иванова,F,Raw,Open,28,60,58,,,,,,-67.5,-67.5,67.5,67.5,,,,,,,67.5,B
3,Irina Filatova,Ирина Филатова,F,Raw,Open,29,60,59,,,,,,55,-57.5,57.5,57.5,,,,,,,57.5,B
1,Irina Romasenko,Ирина Ромасенко,F,Raw,Open,41,67.5,65.6,,,,,,70,75,77.5,77.5,,,,,,,77.5,B
2,Olga Vorontsova,Ольга Воронцова,F,Raw,Open,36,67.5,65.1,,,,,,42.5,45,-52.5,45,,,,,,,45,B
1,Irina Romasenko,Ирина Ромасенко,F,Raw,Masters 40-49,41,67.5,65.6,,,,,,70,75,77.5,77.5,,,,,,,77.5,B
1,Elena Konyushenko,Елена Конюшенко,F,Raw,Open,32,75,70.5,,,,,,-77.5,80,85,85,,,,,,,85,B
2,Olga Gracheva,Ольга Грачева,F,Raw,Open,39,75,72.7,,,,,,75,80,82.5,82.5,,,,,,,82.5,B
DQ,Elena Strebkova,Елена Стребкова,F,Raw,Masters 40-49,46,75,71.8,,,,,,-55,-60,-60,,,,,,,,,B
1,Aleksey Kolisnichenko,Алексей Колисниченко,M,Raw,Juniors 20-23,23,52,49.5,,,,,,-95,95,-100,95,,,,,,,95,B
1,Mohammad Reza Motaghedolhagh,,M,Raw,Open,31,56,55,,,,,,65,75,90,90,,,,,,,90,B
1,Yuriy Murzin,Юрий Мурзин,M,Raw,Sub-Juniors 17-19,17,60,59.8,,,,,,115.5,-120,120,120,,,,,,,120,B
1,Vladislav Yuferev,Владислав Юферев,M,Raw,Juniors 20-23,22,60,59.3,,,,,,105,-112.5,-112.5,105,,,,,,,105,B
DQ,Sergey Salosalov,Сергей Салосалов,M,Raw,Youth,13,67.5,67,,,,,,-95,-100,-100,,,,,,,,,B
1,Baturkhan Mukhametov,Батурхан Мухаметов,M,Raw,Sub-Juniors 17-19,18,67.5,66.5,,,,,,-142.5,142.5,-145,142.5,,,,,,,142.5,B
2,Aleksandr Agapov,Александр Агапов,M,Raw,Sub-Juniors 17-19,18,67.5,66.5,,,,,,-90,90,102.5,102.5,,,,,,,102.5,B
3,Ali Yosefy,,M,Raw,Sub-Juniors 17-19,19,67.5,67.5,,,,,,80,92.5,100,100,,,,,,,100,B
1,Dmitriy Ermolaev,Дмитрий Ермолаев,M,Raw,Juniors 20-23,22,67.5,66.7,,,,,,-140,150,-157.5,150,,,,,,,150,B
2,Aleksandr Asaula,Александр Асаула,M,Raw,Juniors 20-23,23,67.5,63.7,,,,,,-92.5,92.5,97.5,97.5,,,,,,,97.5,B
1,Baturkhan Mukhametov,Батурхан Мухаметов,M,Raw,Open,18,67.5,66.5,,,,,,-142.5,142.5,-145,142.5,,,,,,,142.5,B
2,Rakhman Doshakloev,Рахман Дошаклоев,M,Raw,Open,25,67.5,67,,,,,,130,137.5,-145,137.5,,,,,,,137.5,B
3,Zaur Abdurakhmanov,Заур Абдурахманов,M,Raw,Open,27,67.5,66.3,,,,,,-135,135,-142.5,135,,,,,,,135,B
4,Sergey Arzhaev,Сергей Аржаев,M,Raw,Open,36,67.5,67.3,,,,,,100,107.5,-110,107.5,,,,,,,107.5,B
1,Masood Shokrani,,M,Raw,Masters 60-69,67,67.5,64.4,,,,,,75,80,-85,80,,,,,,,80,B
1,Vlad Baranov,Влад Баранов,M,Raw,Sub-Juniors 17-19,17,75,73.9,,,,,,115,125,-135,125,,,,,,,125,B
1,Sarankhuu Bayanmunkh,,M,Raw,Juniors 20-23,22,75,73.6,,,,,,125,-135,-140,125,,,,,,,125,B
2,Anton Subbotin,Антон Субботин,M,Raw,Juniors 20-23,23,75,73.1,,,,,,117.5,122.5,-127.5,122.5,,,,,,,122.5,B
3,Grigoriy Astafurov,Григорий Астафуров,M,Raw,Juniors 20-23,21,75,73.9,,,,,,-120,120,-125,120,,,,,,,120,B
DQ,Roman Bukalov,Роман Букалов,M,Raw,Juniors 20-23,23,75,73.7,,,,,,-150,-150,-150,,,,,,,,,B
1,Vasiliy Efimov,Василий Ефимов,M,Raw,Open,27,75,74.2,,,,,,145,155,-160,155,,,,,,,155,B
2,Ridvan Medzhitov,Ридван Меджитов,M,Raw,Open,28,75,74.8,,,,,,145,155,-162.5,155,,,,,,,155,B
3,Roni Shubaev,Рони Шубаев,M,Raw,Open,18,75,73,,,,,,135,-137.5,,135,,,,,,,135,B
4,Artur Minasyan,Артур Минасян,M,Raw,Open,29,75,74,,,,,,130,135,-137.5,135,,,,,,,135,B
5,Igor Makarov,Игорь Макаров,M,Raw,Open,35,75,74,,,,,,-130,130,-135,130,,,,,,,130,B
1,Vitaliy Samoylichenko,Виталий Самойличенко,M,Raw,Masters 40-49,42,75,73.3,,,,,,150,-155,-155,150,,,,,,,150,B
2,Aleksey Kiryanov,Алексей Кирьянов,M,Raw,Masters 40-49,42,75,73.3,,,,,,130,135,-137.5,135,,,,,,,135,B
3,Andrey Sachkov,Андрей Сачков,M,Raw,Masters 40-49,41,75,73.8,,,,,,105,112.5,117.5,117.5,,,,,,,117.5,B
1,Nikolay Obukhov,Николай Обухов,M,Raw,Masters 60-69,64,75,74.2,,,,,,-100,100,-105,100,,,,,,,100,B
1,Muhammad-Ali Mirzoev,Мухаммад-Али Мирзоев,M,Raw,Sub-Juniors 17-19,18,82.5,82.5,,,,,,135,145,155,155,,,,,,,155,B
2,Yaroslav Angelov,Ярослав Ангелов,M,Raw,Sub-Juniors 17-19,17,82.5,79.4,,,,,,130,-145,-145,130,,,,,,,130,B
1,Zaur Kurdanov,Заур Курданов,M,Raw,Juniors 20-23,23,82.5,82.4,,,,,,185,190,-195,190,,,,,,,190,B
2,Ivan Zotov,Иван Зотов,M,Raw,Juniors 20-23,23,82.5,79.8,,,,,,145,150,155,155,,,,,,,155,B
3,Amir Adilbekov,Амир Адилбеков,M,Raw,Juniors 20-23,20,82.5,81.2,,,,,,140,150,-157.5,150,,,,,,,150,B
4,Erkhambayar Erdenetuyama,Эрхамбаяр Эрдэнэтуяма,M,Raw,Juniors 20-23,20,82.5,78.2,,,,,,115,122.5,-130,122.5,,,,,,,122.5,B
DQ,Akzholtoy Ramatov,Акжолтой Раматов,M,Raw,Juniors 20-23,21,82.5,82,,,,,,-175,-175,,,,,,,,,,B
1,Evgeniy Voloskiy,Евгений Волоский,M,Raw,Open,29,82.5,81.9,,,,,,205,212.5,-215,212.5,,,,,,,212.5,B
2,Zaur Kurdanov,Заур Курданов,M,Raw,Open,23,82.5,82.4,,,,,,185,190,-195,190,,,,,,,190,B
3,Aleksey Savostyanov,Алексей Савостьянов,M,Raw,Open,30,82.5,80.5,,,,,,-160,-160,160,160,,,,,,,160,B
4,Mikhail Mozhginskiy,Михаил Можгинский,M,Raw,Open,36,82.5,79.9,,,,,,150,155,-160,155,,,,,,,155,B
5,Andrey Skoryatin,Андрей Скорятин,M,Raw,Open,25,82.5,81,,,,,,145,147.5,-150,147.5,,,,,,,147.5,B
6,Dmitriy Ivannikov,Дмитрий Иванников,M,Raw,Open,36,82.5,76.5,,,,,,135,-145,145,145,,,,,,,145,B
7,Ilya Shalaev,Илья Шалаев,M,Raw,Open,28,82.5,80.4,,,,,,-135,-140,140,140,,,,,,,140,B
8,Aleksey Yakunin,Алексей Якунин,M,Raw,Open,25,82.5,80.4,,,,,,135,-145,-145,135,,,,,,,135,B
9,Sergey Smoley,Сергей Смолей,M,Raw,Open,35,82.5,81.2,,,,,,127.5,-132.5,-132.5,127.5,,,,,,,127.5,B
DQ,Akzholtoy Ramatov,Акжолтой Раматов,M,Raw,Open,21,82.5,82,,,,,,-175,-175,,,,,,,,,,B
1,Aleksandr Semenov,Александр Семенов,M,Raw,Masters 40-49,40,82.5,81.8,,,,,,112.5,117.5,120,120,,,,,,,120,B
2,Furkat Shafiev,Фуркат Шафиев,M,Raw,Masters 40-49,44,82.5,80.7,,,,,,-90,90,-100,90,,,,,,,90,B
1,Vyacheslav Troshinskiy,Вячеслав Трошинский,M,Raw,Masters 50-59,57,82.5,78.6,,,,,,120,130,-137.5,130,,,,,,,130,B
1,Vasiliy Mosin,Василий Мосин,M,Raw,Masters 60-69,61,82.5,80.7,,,,,,140,145,-147.5,145,,,,,,,145,B
1,Nikolay Sagan,Николай Саган,M,Raw,Teen 14-16,15,90,89.2,,,,,,120,130,-137.5,130,,,,,,,130,B
1,Ivan Kopytin,Иван Копытин,M,Raw,Sub-Juniors 17-19,18,90,88.2,,,,,,130,140,-142.5,140,,,,,,,140,B
2,Igor Evdokimov,Игорь Евдокимов,M,Raw,Sub-Juniors 17-19,19,90,86.2,,,,,,127.5,132.5,137.5,137.5,,,,,,,137.5,B
3,Nikolay Sagan,Николай Саган,M,Raw,Teen 14-16,15,90,89.2,,,,,,120,130,-137.5,130,,,,,,,130,B
1,Ilya Ermakov,Илья Ермаков,M,Raw,Juniors 20-23,20,90,89,,,,,,180,-190,-190,180,,,,,,,180,B
2,Andrey Roshchupkin,Андрей Рощупкин,M,Raw,Juniors 20-23,23,90,85.5,,,,,,145,-150,150,150,,,,,,,150,B
3,Artem Vorobev,Артем Воробьев,M,Raw,Juniors 20-23,23,90,87.9,,,,,,132.5,-135,,132.5,,,,,,,132.5,B
1,Sergey Kislyakov,Сергей Кисляков,M,Raw,Open,29,90,88.7,,,,,,185,192.5,197.5,197.5,,,,,,,197.5,B
2,Amarzaya Taivantumur,,M,Raw,Open,30,90,90,,,,,,182.5,190,-200,190,,,,,,,190,B
3,Stanislav Popov,Станислав Попов,M,Raw,Open,25,90,88.8,,,,,,185,-190,-190,185,,,,,,,185,B
4,Vadim Makartsov,Вадим Макарцов,M,Raw,Open,36,90,89.2,,,,,,185,-187.5,-187.5,185,,,,,,,185,B
5,Andrey Svidin,Андрей Свидин,M,Raw,Open,37,90,88.9,,,,,,182.5,-192.5,-195,182.5,,,,,,,182.5,B
6,Ilya Ermakov,Илья Ермаков,M,Raw,Open,20,90,87.3,,,,,,180,-190,-190,180,,,,,,,180,B
7,Sergey Ermolaev,Сергей Ермолаев,M,Raw,Open,30,90,89.9,,,,,,170,175,-180,175,,,,,,,175,B
8,Konstantin Kuvezenkov,Константин Кувезенков,M,Raw,Open,36,90,88.9,,,,,,167.5,-175,-175,167.5,,,,,,,167.5,B
9,Ilya Vorontsov,Илья Воронцов,M,Raw,Open,34,90,85.6,,,,,,-160,165,-172.5,165,,,,,,,165,B
10,Ivan Galichevskiy,Иван Галичевский,M,Raw,Open,27,90,87.4,,,,,,-147.5,152.5,-155,152.5,,,,,,,152.5,B
11,Andrey Vorobev,Андрей Воробьев,M,Raw,Open,31,90,89.5,,,,,,-152.5,-152.5,152.5,152.5,,,,,,,152.5,B
12,Aleksey Koval,Алексей Коваль,M,Raw,Open,28,90,87.1,,,,,,145,-152.5,-152.5,145,,,,,,,145,B
13,Aleksey Sinyakov,Алексей Синяков,M,Raw,Open,33,90,89.7,,,,,,-130,132.5,-137.5,132.5,,,,,,,132.5,B
DQ,Kirill Mikhaylov,Кирилл Михайлов,M,Raw,Open,30,90,83.3,,,,,,-160,-160,-162.5,,,,,,,,,B
DQ,Zakhar Krivoshlykov,Захар Кривошлыков,M,Raw,Open,28,90,86.5,,,,,,-180,-180,-180,,,,,,,,,B
DQ,Artem Belyshev,Артем Белышев,M,Raw,Open,26,90,88.6,,,,,,-152.5,-152.5,-152.5,,,,,,,,,B
1,Sabeghi Rashid,,M,Raw,Masters 40-49,44,90,90,,,,,,175,-180,-180,175,,,,,,,175,B
2,Vyacheslav Bondarev,Вячеслав Бондарев,M,Raw,Masters 40-49,49,90,88.7,,,,,,145,155,,155,,,,,,,155,B
3,Konstantin Sigitov,Константин Сигитов,M,Raw,Masters 40-49,45,90,89,,,,,,130,-140,-140,130,,,,,,,130,B
1,Igor Khorkhordin,Игорь Хорхордин,M,Raw,Masters 50-59,50,90,86.2,,,,,,150,-155,-155,150,,,,,,,150,B
2,Igor Aksentev,Игорь Аксентьев,M,Raw,Masters 50-59,52,90,89,,,,,,140,-150,-152.5,140,,,,,,,140,B
3,Valeriy Krolevskiy,Валерий Кролевский,M,Raw,Masters 50-59,56,90,89,,,,,,100,105,110,110,,,,,,,110,B
1,Vyacheslav Klimovich,Вячеслав Климович,M,Raw,Sub-Juniors 17-19,19,100,98.6,,,,,,100,135,140,140,,,,,,,140,B
2,Sergey Shityakov,Сергей Шитяков,M,Raw,Sub-Juniors 17-19,17,100,99.8,,,,,,-115,115,125,125,,,,,,,125,B
1,Aleksandr Fadichev,Александр Фадичев,M,Raw,Juniors 20-23,20,100,98.5,,,,,,130,140,152.5,152.5,,,,,,,152.5,B
2,Sergey Gavrish,Сергей Гавриш,M,Raw,Juniors 20-23,23,100,97,,,,,,130,135,140,140,,,,,,,140,B
1,Magomedemin Bakhmudov,Магомедэмин Бахмудов,M,Raw,Open,28,100,99.8,,,,,,195,202.5,203,203,,,,,,,203,B
2,Aleksandr Kalyagin,Александр Калягин,M,Raw,Open,34,100,99.6,,,,,,195,-200,202.5,202.5,,,,,,,202.5,B
3,Igor Veselov,Игорь Веселов,M,Raw,Open,27,100,99.1,,,,,,170,180,187.5,187.5,,,,,,,187.5,B
4,Beglar Gadzhikurbanov,Беглар Гаджикурбанов,M,Raw,Open,36,100,99.7,,,,,,-175,-175,187.5,187.5,,,,,,,187.5,B
5,Andrey Pirogov,Андрей Пирогов,M,Raw,Open,31,100,98.7,,,,,,180,185,-190,185,,,,,,,185,B
6,Aleksandr Shuralev,Александр Шуралев,M,Raw,Open,42,100,97.5,,,,,,165,175,180,180,,,,,,,180,B
7,Munkhbaatar Baasandorj,,M,Raw,Open,35,100,94,,,,,,140,155,-182.5,155,,,,,,,155,B
8,Stanislav Asadchikh,Станислав Асадчих,M,Raw,Open,28,100,97.8,,,,,,140,147.5,155,155,,,,,,,155,B
9,Aleksandr Sirotkin,Александр Сироткин,M,Raw,Open,31,100,93.3,,,,,,150,-155,-155,150,,,,,,,150,B
10,Dmitriy Pavlov,Дмитрий Павлов,M,Raw,Open,24,100,99.8,,,,,,145,150,-155,150,,,,,,,150,B
11,Oleg Pecheykin,Олег Печейкин,M,Raw,Open,35,100,99.1,,,,,,130,-140,140,140,,,,,,,140,B
DQ,Aleksey Lazukin,Алексей Лазукин,M,Raw,Open,27,100,99.3,,,,,,-155,-162.5,-162.5,,,,,,,,,B
1,Sergey Myakishev,Сергей Мякишев,M,Raw,Masters 40-49,40,100,98.8,,,,,,172.5,177.5,182.5,182.5,,,,,,,182.5,B
2,Aleksandr Shuralev,Александр Шуралев,M,Raw,Masters 40-49,42,100,97.5,,,,,,165,175,180,180,,,,,,,180,B
3,Aleksandr Dymov,Александр Дымов,M,Raw,Masters 40-49,44,100,92.2,,,,,,172.5,-175,177.5,177.5,,,,,,,177.5,B
4,Nikolay Romasenko,Николай Ромасенко,M,Raw,Masters 40-49,43,100,98.6,,,,,,172.5,177.5,-180,177.5,,,,,,,177.5,B
5,Munkherdene Zunduy,Мунхэрдэнэ Зундуй,M,Raw,Masters 40-49,40,100,97.1,,,,,,167.5,175,-182.5,175,,,,,,,175,B
6,Sergey Voronets,Сергей Воронец,M,Raw,Masters 40-49,46,100,94.1,,,,,,165,-172.5,-175,165,,,,,,,165,B
7,Aleksandr Shabalin,Александр Шабалин,M,Raw,Masters 40-49,46,100,97.2,,,,,,140,150,160,160,,,,,,,160,B
1,Ivan Kazantsev,Иван Казанцев,M,Raw,Masters 50-59,50,100,99.3,,,,,,-172.5,175,180,180,,,,,,,180,B
2,Sergey Strakhalis,Сергей Страхалис,M,Raw,Masters 50-59,54,100,97.8,,,,,,160,165,-167.5,165,,,,,,,165,B
3,Petr Sidorenko,Петр Сидоренко,M,Raw,Masters 50-59,50,100,99,,,,,,157.5,162.5,-165,162.5,,,,,,,162.5,B
4,Murat Dzhaytabarov,Мурат Джайтабаров,M,Raw,Masters 50-59,53,100,98.7,,,,,,135,145,,145,,,,,,,145,B
5,Ghadir Armian,,M,Raw,Masters 50-59,57,100,100,,,,,,90,-110,110,110,,,,,,,110,B
1,Vladislav Makushka,Владислав Макушка,M,Raw,Juniors 20-23,22,110,108.8,,,,,,-195,195,-200,195,,,,,,,195,B
2,Milad Kian-vand,,M,Raw,Juniors 20-23,23,110,105.3,,,,,,160,172.5,175,175,,,,,,,175,B
1,Gansukh Batmagnai,,M,Raw,Open,29,110,107.5,,,,,,205,212.5,-217.5,212.5,,,,,,,212.5,B
2,Andris Kibilds,Андрис Кибилдс,M,Raw,Open,33,110,108.9,,,,,,200,207.5,-212.5,207.5,,,,,,,207.5,B
3,Bagaudin Algatov,Багаудин Алгатов,M,Raw,Open,27,110,103.6,,,,,,195,200,-207.5,200,,,,,,,200,B
4,Maksim Sevryukov,Максим Севрюков,M,Raw,Open,32,110,109.1,,,,,,180,190,195,195,,,,,,,195,B
5,Dmitriy Voloshin,Дмитрий Волошин,M,Raw,Open,38,110,110,,,,,,185,190,-200,190,,,,,,,190,B
6,Erat Nurdykhan,Ерат Нурдыхан,M,Raw,Open,31,110,101.9,,,,,,-180,182.5,-200,182.5,,,,,,,182.5,B
7,Vladimir Novozhilov,Владимир Новожилов,M,Raw,Open,28,110,109.7,,,,,,180,-190,-190,180,,,,,,,180,B
8,Dmitriy Koblik,Дмитрий Коблик,M,Raw,Open,24,110,105.7,,,,,,170,-182.5,-182.5,170,,,,,,,170,B
9,Sergey Sidorin,Сергей Сидорин,M,Raw,Open,27,110,109.4,,,,,,-160,-160,160,160,,,,,,,160,B
10,Andrey Rudetskikh,Андрей Рудецких,M,Raw,Open,38,110,101.1,,,,,,142.5,147.5,-150,147.5,,,,,,,147.5,B
11,Ivan Bykov,Иван Быков,M,Raw,Open,33,110,107.8,,,,,,-140,147.5,-155,147.5,,,,,,,147.5,B
DQ,Stanislav Kurlyandtsev,Станислав Курляндцев,M,Raw,Open,24,110,107.5,,,,,,-150,-155,-155,,,,,,,,,B
1,Otgonmuhkh Pagvaasurer,,M,Raw,Masters 40-49,44,110,106.4,,,,,,180,190,200,200,,,,,,,200,B
2,Dmitriy Zharkov,Дмитрий Жарков,M,Raw,Masters 40-49,47,110,101.3,,,,,,160,170,175,175,,,,,,,175,B
3,Vadim Ivanov,Вадим Иванов,M,Raw,Masters 40-49,44,110,107.8,,,,,,170,175,-180,175,,,,,,,175,B
1,Sergey Filinovich,Сергей Филинович,M,Raw,Masters 50-59,56,110,105.6,,,,,,170,177.5,-180,177.5,,,,,,,177.5,B
2,Murat Dzhaytabarov,Мурат Джайтабаров,M,Raw,Masters 50-59,53,110,102.5,,,,,,135,,,135,,,,,,,135,B
1,Marat Dzhaylaubaev,Марат Джайлаубаев,M,Raw,Masters 60-69,61,110,102.5,,,,,,135,-145,-150,135,,,,,,,135,B
1,Artem Matveychuk,Артем Матвейчук,M,Raw,Juniors 20-23,21,125,124,,,,,,175,185,190,190,,,,,,,190,B
1,Ivan Regulyarnyy,Иван Регулярный,M,Raw,Open,32,125,119,,,,,,195,-202.5,202.5,202.5,,,,,,,202.5,B
2,Magomedmurad Magomedov,Магомедмурад Магомедов,M,Raw,Open,44,125,123.8,,,,,,-192.5,195,-202.5,195,,,,,,,195,B
3,Ugtakhbayar Khurelchuluun,Угтахбаяр Хурэлчулуун,M,Raw,Open,28,125,119.1,,,,,,190,,,190,,,,,,,190,B
4,Sergey Zinchenko,Сергей Зинченко,M,Raw,Open,34,125,119.2,,,,,,190,-202.5,-202.5,190,,,,,,,190,B
5,Aleksey Gavshin,Алексей Гавшин,M,Raw,Open,39,125,123.3,,,,,,175,180,-185,180,,,,,,,180,B
6,Aleksandr Malyshev,Александр Малышев,M,Raw,Open,36,125,118.4,,,,,,170,-177.5,177.5,177.5,,,,,,,177.5,B
DQ,Aleksandr Tsybulskiy,Александр Цыбульский,M,Raw,Open,28,125,123.3,,,,,,-177.5,-177.5,-177.5,,,,,,,,,B
1,Magomedmurad Magomedov,Магомедмурад Магомедов,M,Raw,Masters 40-49,44,125,123.8,,,,,,-192.5,195,-202.5,195,,,,,,,195,B
1,Molomjamts Pagvaasuren,,M,Raw,Masters 50-59,50,125,113.9,,,,,,170,180,-195,180,,,,,,,180,B
2,Vladimir Chubarov,Владимир Чубаров,M,Raw,Masters 50-59,53,125,123.9,,,,,,167.5,172.5,177.5,177.5,-182.5,,,,,,177.5,B
1,Ankhbayar Damdin,Анхбаяр Дамдин,M,Raw,Open,38,140,137.6,,,,,,205,215,-222.5,215,,,,,,,215,B
1,Anatoliy Panchenko,Анатолій Панченко,M,Raw,Masters 40-49,43,140,127.7,,,,,,180,-190,-190,180,,,,,,,180,B
1,Igor Khutorov,Игорь Хуторов,M,Raw,Masters 50-59,53,140,134.2,,,,,,-200,-205,205,205,,,,,,,205,B
1,Zorigtbaatar Erdenebat,Зоригтбаатар Эрдэнэбат,M,Raw,Open,35,140+,141.6,,,,,,225,235,-240,235,,,,,,,235,B
1,Alla Kalugina,Алла Калугина,F,Raw,Juniors 20-23,22,48,47.5,,,,,,52.5,55,62.5,62.5,,,,,,,62.5,B
1,Alla Kalugina,Алла Калугина,F,Raw,Open,22,48,47.5,,,,,,52.5,55,62.5,62.5,,,,,,,62.5,B
1,Kristina Yashkova,Кристина Яшкова,F,Raw,Open,39,52,51.2,,,,,,35,40,-45,40,,,,,,,40,B
1,Anna Radyuk,Анна Радюк,F,Raw,Open,24,60,60,,,,,,87.5,95,-100,95,,,,,,,95,B
1,Natalya Knyazeva,Наталья Князева,F,Raw,Masters 40-49,47,60,58.6,,,,,,45,50,-52.5,50,,,,,,,50,B
1,Elena Medvedeva,Елена Медведева,F,Raw,Masters 50-59,55,60,59.4,,,,,,47.5,50,-52.5,50,,,,,,,50,B
1,Veronika Shendrik,Вероника Шендрик,F,Raw,Juniors 20-23,23,75,72,,,,,,75,80,-82.5,80,,,,,,,80,B
1,Alina Chatadzhyan,Алина Чатаджян,F,Raw,Open,28,75,71.3,,,,,,47.5,-50,50,50,,,,,,,50,B
1,Anna Ermolaeva,Анна Ермолаева,F,Raw,Masters 40-49,42,75,73.2,,,,,,77.5,-82.5,-82.5,77.5,,,,,,,77.5,B
2,Olga Baranova,Ольга Баранова,F,Raw,Masters 40-49,41,75,73.5,,,,,,60,62.5,-65,62.5,,,,,,,62.5,B
3,Tatyana Filimonova,Татьяна Филимонова,F,Raw,Masters 40-49,48,75,73.7,,,,,,60,-65,-65,60,,,,,,,60,B
1,Olga Turkovskaya,Ольга Турковская,F,Raw,Masters 50-59,50,75,69.9,,,,,,50,-55,55,55,,,,,,,55,B
1,Vera Bogdanovich,Вера Богданович,F,Raw,Open,28,82.5,77.4,,,,,,120,125,130,130,-135,,,,,,130,B
2,Anna Rodnina,Анна Роднина,F,Raw,Open,33,82.5,77.4,,,,,,92.5,97.5,-100,97.5,,,,,,,97.5,B
1,Irina Yakovleva,Ирина Яковлева,F,Raw,Masters 40-49,47,82.5,80.3,,,,,,90,95,100,100,,,,,,,100,B
1,Yuriy Murzin,Юрий Мурзин,M,Raw,Sub-Juniors 17-19,17,60,59.8,,,,,,120,,,120,,,,,,,120,B
2,Denis Muravshchik,Денис Муравщик,M,Raw,Sub-Juniors 17-19,18,60,58,,,,,,-100,-100,100,100,,,,,,,100,B
1,Khasan Samigullin,Хасан Самигуллин,M,Raw,Open,25,60,59,,,,,,135,140,150,150,,,,,,,150,B
1,Dmitriy Kistanov,Дмитрий Кистанов,M,Raw,Open,24,67.5,66.6,,,,,,135,145,150,150,,,,,,,150,B
2,Mustafo Abduev,Мустафо Абдуев,M,Raw,Open,31,67.5,65.7,,,,,,122.5,132.5,-140,132.5,,,,,,,132.5,B
1,Igor Chistyakov,Игорь Чистяков,M,Raw,Masters 50-59,52,67.5,67.3,,,,,,105,110,,110,,,,,,,110,B
1,Ilyas Khaziev,Ильяс Хазиев,M,Raw,Juniors 20-23,22,75,73.9,,,,,,137.5,147.5,155,155,,,,,,,155,B
2,Anton Krutikov,Антон Крутиков,M,Raw,Juniors 20-23,22,75,74.4,,,,,,142.5,150,155,155,,,,,,,155,B
3,Mohammed Irfan Ansari,,M,Raw,Juniors 20-23,22,75,74.3,,,,,,110,120,-125,120,,,,,,,120,B
DQ,Yunus Aitov,Юнус Аитов,M,Raw,Juniors 20-23,21,75,71.8,,,,,,,,,,,,,,,,,B
1,Vakha Khadziev,Ваха Хадзиев,M,Raw,Open,23,75,75,,,,,,185,-195,195,195,,,,,,,195,B
2,Aleksandr Gagolin,Александр Гаголин,M,Raw,Open,30,75,73.4,,,,,,170,180,-185,180,,,,,,,180,B
3,Aleksey Syuta,Алексей Сюта,M,Raw,Open,37,75,74.4,,,,,,150,155,160,160,,,,,,,160,B
4,Aleksandr Shibaev,Александр Шибаев,M,Raw,Open,26,75,72.9,,,,,,150,-155,-155,150,,,,,,,150,B
5,Kirill Savchenko,Кирилл Савченко,M,Raw,Open,24,75,75,,,,,,-130,130,-140,130,,,,,,,130,B
1,Chakhar Tumurbaatar,,M,Raw,Masters 40-49,43,75,74.3,,,,,,140,-157.5,-160,140,,,,,,,140,B
1,Nikita Pokazanov,Никита Показанов,M,Raw,Sub-Juniors 17-19,19,82.5,80.2,,,,,,180,190,-197.5,190,,,,,,,190,B
2,Ilya Novikov,Илья Новиков,M,Raw,Sub-Juniors 17-19,18,82.5,82,,,,,,150,155,160,160,,,,,,,160,B
1,Oleg Kulakov,Олег Кулаков,M,Raw,Juniors 20-23,23,82.5,82,,,,,,-155,-162.5,165,165,,,,,,,165,B
2,Konstantin Medvedev,Константин Медведев,M,Raw,Juniors 20-23,20,82.5,80.5,,,,,,115,-120,,115,,,,,,,115,B
1,Parviz Odinaev,Парвиз Одинаев,M,Raw,Open,34,82.5,80.2,,,,,,207.5,-212.5,-215,207.5,,,,,,,207.5,B
2,Akhmed Mereshkov,Ахмед Мерешков,M,Raw,Open,28,82.5,81.5,,,,,,192.5,-202.5,202.5,202.5,,,,,,,202.5,B
3,Ruslan Klimov,Руслан Климов,M,Raw,Open,20,82.5,81.7,,,,,,190,-197.5,197.5,197.5,,,,,,,197.5,B
4,Nikita Pokazanov,Никита Показанов,M,Raw,Open,19,82.5,80.2,,,,,,180,190,-197.5,190,,,,,,,190,B
5,Leonid Zolotovskiy,Леонид Золотовский,M,Raw,Open,25,82.5,80.7,,,,,,142.5,152.5,-157.5,152.5,,,,,,,152.5,B
6,Kirill Chayka,Кирилл Чайка,M,Raw,Open,28,82.5,81.7,,,,,,135,-142.5,-142.5,135,,,,,,,135,B
7,Anton Achkasov,Антон Ачкасов,M,Raw,Open,36,82.5,77.3,,,,,,125,127.5,132.5,132.5,,,,,,,132.5,B
8,Nikolay Kozarev,Николай Козарев,M,Raw,Open,25,82.5,76.2,,,,,,90,100,-105,100,,,,,,,100,B
DQ,Andrey Baranov,Андрей Баранов,M,Raw,Open,26,82.5,78.8,,,,,,-135,-142.5,-142.5,,,,,,,,,B
DQ,Ruslan Klimov,Руслан Климов,M,Raw,Open,20,82.5,81.7,,,,,,-190,-190,,,,,,,,,,B
1,Dmitriy Yanevich,Дмитрий Яневич,M,Raw,Masters 40-49,43,82.5,81.9,,,,,,185,192.5,-197.5,192.5,,,,,,,192.5,B
2,Nikolay Novokshonov,Николай Новокшонов,M,Raw,Masters 40-49,43,82.5,82.3,,,,,,165,170,175,175,,,,,,,175,B
3,Aleksey Shchyotkin,Алексей Щёткин,M,Raw,Masters 40-49,42,82.5,80.7,,,,,,-140,145,-150,145,,,,,,,145,B
1,Sergey Gopko,Сергей Гопко,M,Raw,Masters 60-69,61,82.5,80.5,,,,,,135,140,145,145,,,,,,,145,B
1,Evgeniy Khudoleev,Евгений Худолеев,M,Raw,Masters 70-79,71,82.5,81.1,,,,,,105,110,-112.5,110,,,,,,,110,B
2,Valentin Kozlov,Валентин Козлов,M,Raw,Masters 70-79,74,82.5,76.2,,,,,,82.5,90,92.5,92.5,,,,,,,92.5,B
1,Anatoliy Kovalev,Анатолий Ковалев,M,Raw,Masters 80-89,81,82.5,78.7,,,,,,85,92.5,97.5,97.5,,,,,,,97.5,B
1,Dmitriy Yanovskiy,Дмитрий Яновский,M,Raw,Juniors 20-23,21,90,87.4,,,,,,205,210,-212.5,210,,,,,,,210,B
2,Eduard Ageev,Эдуард Агеев,M,Raw,Juniors 20-23,22,90,88.4,,,,,,195,-200,-200,195,,,,,,,195,B
3,Aleksandr Sidelnikov,Александр Сидельников,M,Raw,Juniors 20-23,20,90,90,,,,,,160,170,-175,170,,,,,,,170,B
4,Egor Tambovtsev,Егор Тамбовцев,M,Raw,Juniors 20-23,20,90,85.5,,,,,,145,152.5,160,160,,,,,,,160,B
1,Vyacheslav Letlyans,Вячеслав Летлянс,M,Raw,Open,30,90,87.9,,,,,,238,245,-250,245,,,,,,,245,B
2,Erlan Alkeev,Ерлан Алкеев,M,Raw,Open,28,90,88.2,,,,,,212.5,-220,-220,212.5,,,,,,,212.5,B
3,Sergey Khamitsevich,Сергей Хамицевич,M,Raw,Open,30,90,87,,,,,,197.5,-207.5,-212.5,197.5,,,,,,,197.5,B
4,Eduard Ageev,Эдуард Агеев,M,Raw,Open,22,90,88.4,,,,,,195,-200,-200,195,,,,,,,195,B
5,Pavel Shvetsov,Павел Швецов,M,Raw,Open,27,90,85.7,,,,,,165,180,182.5,182.5,,,,,,,182.5,B
6,Vitaliy Chernyavskiy,Виталий Чернявский,M,Raw,Open,45,90,87.8,,,,,,175,182.5,,182.5,,,,,,,182.5,B
7,Artur Davtyan,Артур Давтян,M,Raw,Open,29,90,88.3,,,,,,165,175,-180,175,,,,,,,175,B
8,Aleksandr Nikishin,Александр Никишин,M,Raw,Open,29,90,87.5,,,,,,155,-175,-175,155,,,,,,,155,B
9,Sergey Kuznetsov,Сергей Кузнецов,M,Raw,Open,26,90,87.3,,,,,,140,152.5,-175,152.5,,,,,,,152.5,B
10,Sergey Guba,Сергей Губа,M,Raw,Open,31,90,86.5,,,,,,120,135,-152.5,135,,,,,,,135,B
11,Sergey Salivon,Сергей Саливон,M,Raw,Open,35,90,88.2,,,,,,120,125,132.5,132.5,,,,,,,132.5,B
1,Andrey Latyshev,Андрей Латышев,M,Raw,Masters 40-49,44,90,89.3,,,,,,192.5,-197.5,197.5,197.5,,,,,,,197.5,B
2,Vitaliy Chernyavskiy,Виталий Чернявский,M,Raw,Masters 40-49,45,90,87.8,,,,,,175,182.5,,182.5,,,,,,,182.5,B
3,Vadim Yashin,Вадим Яшин,M,Raw,Masters 40-49,48,90,89,,,,,,170,-180,-180,170,,,,,,,170,B
1,Gennadiy Sorokin,Геннадий Сорокин,M,Raw,Masters 50-59,58,90,88.9,,,,,,135,140,-150,140,,,,,,,140,B
1,Sergey Rudakov,Сергей Рудаков,M,Raw,Sub-Juniors 17-19,19,100,96.7,,,,,,170,185,-192.5,185,,,,,,,185,B
1,Nikita Burtsev,Никита Бурцев,M,Raw,Juniors 20-23,21,100,98.9,,,,,,175,185,192.5,192.5,,,,,,,192.5,B
2,Aleksandr Lopyrev,Александр Лопырев,M,Raw,Juniors 20-23,22,100,92.3,,,,,,170,180,190,190,,,,,,,190,B
3,Vladislav Dumchev,Владислав Думчев,M,Raw,Juniors 20-23,20,100,94.8,,,,,,-147.5,150,-160,150,,,,,,,150,B
1,Pavel Kreynis,Павел Крейнис,M,Raw,Open,29,100,100,,,,,,227.5,237.5,-242.5,237.5,,,,,,,237.5,B
2,Yuriy Belkov,Юрий Бельков,M,Raw,Open,30,100,98.7,,,,,,225,235,-240,235,,,,,,,235,B
3,Timur Kozyr,Тимур Козырь,M,Raw,Open,29,100,97.2,,,,,,210,217.5,225,225,,,,,,,225,B
4,Ivan Kabanov,Иван Кабанов,M,Raw,Open,36,100,99.4,,,,,,-205,215,,215,,,,,,,215,B
5,Evgeniy Novikov,Евгений Новиков,M,Raw,Open,34,100,97.3,,,,,,190,205,-215,205,,,,,,,205,B
6,Maksim Medvedev,Максим Медведев,M,Raw,Open,36,100,99.2,,,,,,185,195,202.5,202.5,,,,,,,202.5,B
7,Eduard Kovshin,Эдуард Ковшин,M,Raw,Open,27,100,97.8,,,,,,185,195,200,200,,,,,,,200,B
8,Sergey Shcherbina,Сергей Щербина,M,Raw,Open,25,100,98.1,,,,,,185,195,,195,,,,,,,195,B
9,Evgeniy Zaytsev,Евгений Зайцев,M,Raw,Open,27,100,98.2,,,,,,185,-192.5,192.5,192.5,,,,,,,192.5,B
10,Dmitriy Korolev,Дмитрий Королев,M,Raw,Open,24,100,95.6,,,,,,185,190,-192.5,190,,,,,,,190,B
11,Igor Nedelko,,M,Raw,Open,38,100,98.9,,,,,,-190,190,,190,,,,,,,190,B
12,Vadim Nikitin,Вадим Никитин,M,Raw,Open,27,100,98.9,,,,,,180,-192.5,-192.5,180,,,,,,,180,B
13,Martin Kowald,,M,Raw,Open,34,100,97.3,,,,,,165,175,-180,175,,,,,,,175,B
14,Pavel Chuyasov,Павел Чуясов,M,Raw,Open,31,100,98.4,,,,,,175,-185,-185,175,,,,,,,175,B
DQ,Maksim Ershov,Максим Ершов,M,Raw,Open,24,100,91.2,,,,,,,,,,,,,,,,,B
DQ,Konstantin Pantyushin,Константин Пантюшин,M,Raw,Open,28,100,94,,,,,,-205,-215,-215,,,,,,,,,B
DQ,Yuriy Aleynikov,Юрий Алейников,M,Raw,Open,31,100,99.6,,,,,,-175,-175,-175,,,,,,,,,B
1,Guseyn Guseynov,Гусейн Гусейнов,M,Raw,Masters 50-59,51,100,98.5,,,,,,160,170,180,180,,,,,,,180,B
1,Arseniy Strebkov,Арсений Стребков,M,Raw,Sub-Juniors 17-19,17,110,109.2,,,,,,150,160,-165,160,,,,,,,160,B
1,Aleksandr Bantsevich,Александр Банцевич,M,Raw,Juniors 20-23,23,110,107.7,,,,,,-210,210,-212.5,210,,,,,,,210,B
2,Aldiyar Erlan,Алдияр Ерлан,M,Raw,Juniors 20-23,22,110,109,,,,,,180,-192.5,,180,,,,,,,180,B
DQ,Kirill Mikhaylov,Кирилл Михайлов,M,Raw,Juniors 20-23,21,110,102,,,,,,-160,-160,,,,,,,,,,B
DQ,Dmitriy Frank,Дмитрий Франк,M,Raw,Juniors 20-23,23,110,107.7,,,,,,-222.5,-222.5,-222.5,,,,,,,,,B
1,Ibrahim Khamkhoev,Ибрагим Хамхоев,M,Raw,Open,32,110,109.7,,,,,,-245,245,252.5,252.5,,,,,,,252.5,B
2,Rustem Sagdiev,Рустем Сагдиев,M,Raw,Open,46,110,107,,,,,,240,245,250,250,,,,,,,250,B
3,Vladislav Antonov,Владислав Антонов,M,Raw,Open,26,110,107.4,,,,,,220,225,230,230,,,,,,,230,B
4,Konstantin Komissarov,Константин Комиссаров,M,Raw,Open,32,110,105.2,,,,,,215,-227.5,227.5,227.5,,,,,,,227.5,B
5,Akhmed Musaev,Ахмед Мусаев,M,Raw,Open,37,110,107.7,,,,,,200,210,-217.5,210,,,,,,,210,B
6,Andrey Apalkov,Андрей Апальков,M,Raw,Open,38,110,109.2,,,,,,210,-222.5,,210,,,,,,,210,B
7,Aleksandr Kvaskov,Александр Квасков,M,Raw,Open,31,110,108.5,,,,,,175,185,192.5,192.5,,,,,,,192.5,B
8,Said Gamzabekov,Саид Гамзабеков,M,Raw,Open,26,110,101.4,,,,,,190,-200,-200,190,,,,,,,190,B
9,Vlastimil Kužel,,M,Raw,Open,39,110,110,,,,,,190,-200,-200,190,,,,,,,190,B
DQ,Yaroslav Rusakov,Ярослав Русаков,M,Raw,Open,24,110,107.5,,,,,,-192.5,-192.5,-192.5,,,,,,,,,B
1,Rustem Sagdiev,Рустем Сагдиев,M,Raw,Masters 40-49,46,110,107,,,,,,240,245,250,250,,,,,,,250,B
2,Sergey Polutin,Сергей Полутин,M,Raw,Masters 40-49,42,110,105.2,,,,,,210,215,-217.5,215,,,,,,,215,B
3,Sergey Popov,Сергей Попов,M,Raw,Masters 40-49,40,110,108.2,,,,,,205,212.5,-215,212.5,,,,,,,212.5,B
4,Aleksandr Galakhov,Александр Галахов,M,Raw,Masters 40-49,46,110,105.9,,,,,,195,200,202.5,202.5,,,,,,,202.5,B
5,Vladimir Lisitskiy,Владимир Лисицкий,M,Raw,Masters 40-49,47,110,108.2,,,,,,190,-200,,190,,,,,,,190,B
6,Alexey Kuzmin,Алексей Кузьмин,M,Raw,Masters 40-49,41,110,107.6,,,,,,175,180,-187.5,180,,,,,,,180,B
7,Gennadiy Tropin,Геннадий Тропин,M,Raw,Masters 40-49,48,110,109.2,,,,,,-85,95,-100,95,,,,,,,95,B
8,Vladimir Volnyshev,Владимир Волнышев,M,Raw,Masters 40-49,41,110,108.1,,,,,,55,-60,60,60,,,,,,,60,B
DQ,Igor Kurotchenko,Игорь Куротченко,M,Raw,Masters 50-59,55,110,108,,,,,,,,,,,,,,,,,B
1,Aleksandr Bukharin,Александр Бухарин,M,Raw,Sub-Juniors 17-19,18,125,115.7,,,,,,195,200,205,205,-210,,,,,,205,B
1,Vishal Khanna,,M,Raw,Open,36,125,125,,,,,,240,245,252.5,252.5,,,,,,,252.5,B
2,Sergey Razzhivaykin,Сергей Разживайкин,M,Raw,Open,28,125,122.4,,,,,,230,240,250,250,,,,,,,250,B
3,Vitaliy Mordvinov,Виталий Мордвинов,M,Raw,Open,30,125,123.8,,,,,,250,-260,-260,250,,,,,,,250,B
4,Dmitriy Pys,Дмитрий Пысь,M,Raw,Open,31,125,124,,,,,,220,-230,230,230,,,,,,,230,B
5,Christian Raidel,,M,Raw,Open,35,125,120.6,,,,,,227.5,-242.5,-242.5,227.5,,,,,,,227.5,B
6,Konstantin Pribytkov,Константин Прибытков,M,Raw,Open,32,125,121.3,,,,,,210,220,-230,220,,,,,,,220,B
7,Roman Fedorov,Роман Федоров,M,Raw,Open,25,125,119,,,,,,195,202.5,-210,202.5,,,,,,,202.5,B
8,Kirill Nikolaev,Кирилл Николаев,M,Raw,Open,37,125,114.7,,,,,,185,-202.5,-202.5,185,,,,,,,185,B
DQ,Maksim Silaev,Максим Силаев,M,Raw,Open,49,125,118.9,,,,,,-235,-235,,,,,,,,,,B
1,Konstantin Silin,Константин Силин,M,Raw,Masters 40-49,41,125,122.5,,,,,,-225,230,235,235,,,,,,,235,B
2,Sergey Gerasimov,Сергей Герасимов,M,Raw,Masters 40-49,41,125,122.5,,,,,,215,-220,-220,215,,,,,,,215,B
DQ,Maksim Silaev,Максим Силаев,M,Raw,Masters 40-49,49,125,118.9,,,,,,-235,-235,,,,,,,,,,B
1,Igor Kurotchenko,Игорь Куротченко,M,Raw,Masters 50-59,55,125,110.2,,,,,,140,147.5,155,155,,,,,,,155,B
1,Roman Chuba,Роман Чуба,M,Raw,Masters 60-69,63,125,123.9,,,,,,140,150,152.5,152.5,,,,,,,152.5,B
1,Ivan Zaytsev,Иван Зайцев,M,Raw,Juniors 20-23,20,140,126.6,,,,,,200,-210,-215,200,,,,,,,200,B
1,Evgeniy Lubkin,Евгений Лубкин,M,Raw,Open,32,140,129.3,,,,,,220,250,260,260,,,,,,,260,B
2,Aleksandr Sidorov,Александр Сидоров,M,Raw,Open,37,140,133,,,,,,245,252.5,-262.5,252.5,,,,,,,252.5,B
1,Sergey Kharitonov,Сергей Харитонов,M,Raw,Open,30,140+,183.7,,,,,,240,-250,250,250,,,,,,,250,B
2,Nikolay Rozhdaev,Николай Рождаев,M,Raw,Open,26,140+,145,,,,,,200,210,215,215,,,,,,,215,B
3,Arman Kokaev,Арман Кокаев,M,Raw,Open,32,140+,140.9,,,,,,-200,200,-215,200,,,,,,,200,B
1,Galina Sokova,Галина Сокова,F,Raw,Sub-Juniors 17-19,19,44,44,,,,,,40,42.5,45,45,,,,,,,45,B
1,Margarita Talitsyna,Маргарита Талицына,F,Raw,Masters 40-49,49,56,52.5,,,,,,35,40,42.5,42.5,,,,,,,42.5,B
1,Lyubov Potapova,Любовь Потапова,F,Raw,Masters 60-69,62,60,57.2,,,,,,27.5,30,-32.5,30,,,,,,,30,B
1,Elena Lebedeva,Елена Лебедева,F,Raw,Masters 50-59,54,82.5,81.3,,,,,,32.5,35,37.5,37.5,,,,,,,37.5,B
1,Valentina Semenyuk,Валентина Семенюк,F,Raw,Masters 60-69,65,82.5,82.1,,,,,,30,32.5,35,35,,,,,,,35,B
1,Vladimir Shishikin,Владимир Шишикин,M,Raw,Sub-Juniors 17-19,18,52,51,,,,,,45,50,52.5,52.5,,,,,,,52.5,B
1,Dmitriy Telyushin,Дмитрий Телюшин,M,Raw,Juniors 20-23,20,52,50.9,,,,,,40,45,50,50,,,,,,,50,B
1,Aleksandr Andreev,Александр Андреев,M,Raw,Teen 14-16,14,67.5,62.9,,,,,,75,80,-85,80,,,,,,,80,B
2,Ivan Illarionov,Иван Илларионов,M,Raw,Teen 14-16,15,67.5,64.8,,,,,,40,42.5,45,45,,,,,,,45,B
1,Vladimir Domnin,Владимир Домнин,M,Raw,Juniors 20-23,22,67.5,65.4,,,,,,115,120,-125,120,,,,,,,120,B
1,Vasiliy Bezborodov,Василий Безбородов,M,Raw,Open,24,67.5,66.7,,,,,,75,80,82.5,82.5,,,,,,,82.5,B
1,Evgeniy Kosarev,Евгений Косарев,M,Raw,Masters 50-59,56,67.5,63.9,,,,,,87.5,90,-92.5,90,,,,,,,90,B
1,Yunus Aitov,Юнус Аитов,M,Raw,Juniors 20-23,21,75,71.8,,,,,,45,50,55,55,,,,,,,55,B
1,Aleksey Pachin,Алексей Пачин,M,Raw,Open,38,75,72.9,,,,,,65,70,75,75,,,,,,,75,B
1,Sergey Dyubkin,Сергей Дюбкин,M,Raw,Open,35,82.5,78,,,,,,140,155,-157.5,155,,,,,,,155,B
2,Nikolay Petrokovich,Николай Петрокович,M,Raw,Open,38,82.5,77.5,,,,,,-117.5,117.5,-122.5,117.5,,,,,,,117.5,B
1,Georgiy Gvozdev,Георгий Гвоздев,M,Raw,Masters 50-59,58,82.5,79.3,,,,,,115,117.5,120,120,,,,,,,120,B
1,Vyacheslav Grunichev,Вячеслав Груничев,M,Raw,Masters 70-79,78,82.5,76.5,,,,,,25,27.5,30,30,,,,,,,30,B
1,Mohammad Al-Haydari,,M,Raw,Open,39,90,84.7,,,,,,150,-160,-160,150,,,,,,,150,B
2,Aleksandr Veselov,Александр Веселов,M,Raw,Open,27,90,85,,,,,,65,70,-75,70,,,,,,,70,B
1,Aleksandr Lednev,Александр Леднёв,M,Raw,Masters 40-49,44,90,86.4,,,,,,90,97.5,102.5,102.5,,,,,,,102.5,B
1,Sergey Kovalev,Сергей Ковалев,M,Raw,Masters 40-49,48,100,96.2,,,,,,115,120,122.5,122.5,,,,,,,122.5,B
1,Sergey Shirkevich,Сергей Ширкевич,M,Raw,Masters 60-69,65,100,91.7,,,,,,135,140,145,145,,,,,,,145,B
1,Vladimir Kuznetsov,Владимир Кузнецов,M,Raw,Masters 70-79,72,100,95.8,,,,,,60,65,70,70,,,,,,,70,B
1,Ivan Puryshev,Иван Пурышев,M,Raw,Open,37,110,101.7,,,,,,40,45,-55,45,,,,,,,45,B
1,Darya Lopyreva,Дарья Лопырева,F,Raw,Youth,12,44,32.6,,,,,,,,,,,60,65,67.5,67.5,,67.5,D
1,Olga Kulikova,Ольга Куликова,F,Raw,Youth,13,48,45.8,,,,,,,,,,,70,75,80,80,,80,D
1,Marina Gorbacheva,Марина Горбачева,F,Raw,Open,34,48,47.3,,,,,,,,,,,120,127.5,132.5,132.5,135,132.5,D
2,Tatyana Serova,Татьяна Серова,F,Raw,Open,39,48,45.8,,,,,,,,,,,85,97.5,105,105,,105,D
1,Anastasiya Gorshkova,Анастасия Горшкова,F,Raw,Open,29,52,51.1,,,,,,,,,,,125,130,135,135,,135,D
2,Valentina Tarasova,Валентина Тарасова,F,Raw,Open,42,52,50.4,,,,,,,,,,,120,125,130,130,,130,D
1,Elina Rikman,Элина Рикман,F,Raw,Sub-Juniors 17-19,18,56,55.6,,,,,,,,,,,115,125,130,130,,130,D
2,Margarita Gutnik,Маргарита Гутник,F,Raw,Sub-Juniors 17-19,19,56,56,,,,,,,,,,,127.5,-132.5,-132.5,127.5,,127.5,D
1,Olga Ryzhikova,Ольга Рыжикова,F,Raw,Open,42,56,53,,,,,,,,,,,110,125,135,135,,135,D
2,Mariya Gadzhizade,Мария Гаджизаде,F,Raw,Open,24,56,54.8,,,,,,,,,,,100,-110,110,110,,110,D
1,Elizaveta Vashkeba,Елизавета Вашкеба,F,Raw,Juniors 20-23,20,67.5,64.8,,,,,,,,,,,120,122.5,125,125,,125,D
1,Ekaterina Strelnikova,Екатерина Стрельникова,F,Raw,Open,30,67.5,64.6,,,,,,,,,,,150,157.5,160,160,,160,D
2,Svetlana Bueva,Светлана Буева,F,Raw,Open,32,67.5,65.2,,,,,,,,,,,85,90,100,100,,100,D
1,Elena Konyushenko,Елена Конюшенко,F,Raw,Open,32,75,70.5,,,,,,,,,,,140,150,155,155,,155,D
2,Mariya Fedosenko,Мария Федосенко,F,Raw,Open,31,75,69,,,,,,,,,,,115,127.5,137.5,137.5,,137.5,D
3,Ekaterina Grigolevich,Екатерина Григолевич,F,Raw,Open,34,75,70.2,,,,,,,,,,,110,120,135,135,,135,D
1,Anastasiya Frank,Анастасия Франк,F,Raw,Juniors 20-23,23,82.5,78.6,,,,,,,,,,,135,140,145,145,,145,D
1,Mohammad Reza Motaghedolhagh,,M,Raw,Open,31,56,55,,,,,,,,,,,-95,95,115,115,,115,D
1,Dinislam Gataev,Динислам Гатаев,M,Raw,Juniors 20-23,21,60,59.2,,,,,,,,,,,215,-220,-220,215,,215,D
2,Batdorzh Batkhuyag,Батдорж Батхуяг,M,Raw,Juniors 20-23,23,60,56.4,,,,,,,,,,,170,180,-187.5,180,,180,D
DQ,Maksim Popov #1,Максим Попов,M,Raw,Open,33,60,58.1,,,,,,,,,,,-230,-230,-230,,,,D
1,Yulian Strochenkov,Юлиан Строченков,M,Raw,Sub-Juniors 17-19,18,67.5,67.1,,,,,,,,,,,225,235,-242.5,235,,235,D
2,Dmitriy Malikov,Дмитрий Маликов,M,Raw,Sub-Juniors 17-19,17,67.5,67.5,,,,,,,,,,,155,167.5,177.5,177.5,,177.5,D
3,Ali Yosefy,,M,Raw,Sub-Juniors 17-19,19,67.5,67.5,,,,,,,,,,,160,170,-175,170,,170,D
1,Freddy Sosin,,M,Raw,Juniors 20-23,22,67.5,66.4,,,,,,,,,,,207.5,215,-222.5,215,,215,D
1,Ivan Dyachenko,Иван Дьяченко,M,Raw,Open,31,67.5,66,,,,,,,,,,,235,245,255,255,,255,D
2,Yulian Strochenkov,Юлиан Строченков,M,Raw,Open,18,67.5,67.1,,,,,,,,,,,225,235,-242.5,235,,235,D
3,Aleksandr Buychenko,Александр Буйченко,M,Raw,Open,35,67.5,67.5,,,,,,,,,,,225,-232.5,-232.5,225,,225,D
4,Pavel Vlasov,Павел Власов,M,Raw,Open,30,67.5,65.8,,,,,,,,,,,215,220,-225,220,,220,D
5,Konstantin Sviridov,,M,Raw,Open,32,67.5,64.8,,,,,,,,,,,120,140,-160,140,,140,D
6,Sarantuyaa Zidaabazar,Сарантуяа Зидаабазар,M,Raw,Open,28,67.5,65.4,,,,,,,,,,,110,140,-160,140,,140,D
1,Nikolay Emelyanov,Николай Емельянов,M,Raw,Masters 50-59,53,67.5,65.4,,,,,,,,,,,165,172.5,177.5,177.5,,177.5,D
1,Masood Shokrani,,M,Raw,Masters 60-69,67,67.5,64.4,,,,,,,,,,,80,90,100,100,,100,D
1,Artyom Lazarev,Артём Лазарев,M,Raw,Sub-Juniors 17-19,19,75,72.2,,,,,,,,,,,202.5,-207.5,-207.5,202.5,,202.5,D
1,Denis Denisov,Денис Денисов,M,Raw,Juniors 20-23,23,75,73.2,,,,,,,,,,,207.5,215,222.5,222.5,,222.5,D
1,Vartan Paloyan,Вартан Палоян,M,Raw,Open,28,75,74,,,,,,,,,,,290,-300,-300,290,,290,D
2,Mikhail Chetvergov,Михаил Четвергов,M,Raw,Open,33,75,74.3,,,,,,,,,,,-220,220,240,240,,240,D
3,Ilya Shtefan,Илья Штефан,M,Raw,Open,25,75,74.1,,,,,,,,,,,-235,-235,237.5,237.5,,237.5,D
4,Batbold Batsukh,Батболд Батсух,M,Raw,Open,29,75,74.6,,,,,,,,,,,230,237.5,-240,237.5,,237.5,D
5,Ilya Shtefan,Илья Штефан,M,Raw,Open,25,75,73,,,,,,,,,,,235,-242.5,-242.5,235,,235,D
6,Sergey Yasnetsov,Сергей Яснецов,M,Raw,Open,36,75,69.7,,,,,,,,,,,220,-235,-237.5,220,,220,D
7,Roman Chernyshov,Роман Чернышов,M,Raw,Open,32,75,70.1,,,,,,,,,,,-182.5,182.5,-187.5,182.5,,182.5,D
1,Alder Zhaksybekov,Альдер Жаксыбеков,M,Raw,Masters 40-49,43,75,72.4,,,,,,,,,,,130,150,162.5,162.5,,162.5,D
1,Valeriy Khomenko,Валерий Хоменко,M,Raw,Masters 60-69,66,75,73.6,,,,,,,,,,,180,200,210,210,,210,D
1,Aleksandr Likholai,Александр Лихолай,M,Raw,Masters 70-79,78,75,73.8,,,,,,,,,,,105,115,-120,115,,115,D
1,Vadim Murych,Вадим Мурыч,M,Raw,Sub-Juniors 17-19,19,82.5,79.4,,,,,,,,,,,210,220,230,230,,230,D
1,Evgeniy Gorshkov,Евгений Горшков,M,Raw,Open,35,82.5,79.5,,,,,,,,,,,275,285,295,295,-300,295,D
2,Roman Zavyalov,Роман Завьялов,M,Raw,Open,37,82.5,81.1,,,,,,,,,,,260,270,-280,270,,270,D
3,Anton Kalinin,Антон Калинин,M,Raw,Open,31,82.5,80.2,,,,,,,,,,,-230,230,240,240,,240,D
4,Nikita Zdobnikov,Никита Здобников,M,Raw,Open,35,82.5,77.8,,,,,,,,,,,210,220,230,230,,230,D
5,Yuriy Bezruchko,Юрий Безручко,M,Raw,Open,33,82.5,80.9,,,,,,,,,,,170,190,-220,190,,190,D
DQ,Sergey Stotik,Сергей Стотик,M,Raw,Open,27,82.5,82.1,,,,,,,,,,,-235,-250,-250,,,,D
1,Byambatogtokh Sharavdorzh,Бямбатогтох Шаравдорж,M,Raw,Masters 40-49,45,82.5,82.5,,,,,,,,,,,220,227.5,242.5,242.5,,242.5,D
2,Sergey Prokofev,Сергей Прокофьев,M,Raw,Masters 40-49,44,82.5,81,,,,,,,,,,,220,225,230,230,,230,D
3,Aleksandr Semenov,Александр Семенов,M,Raw,Masters 40-49,40,82.5,81.8,,,,,,,,,,,160,170,-180,170,,170,D
1,Ivan Kopytin,Иван Копытин,M,Raw,Sub-Juniors 17-19,18,90,88.2,,,,,,,,,,,220,240,250.5,250.5,,250.5,D
1,Nazariy Kulyk,Назарий Кулык,M,Raw,Juniors 20-23,20,90,88.3,,,,,,,,,,,-270,270,287.5,287.5,,287.5,D
2,Petr Kireev,Петр Киреев,M,Raw,Juniors 20-23,21,90,88.1,,,,,,,,,,,250,-270,-270,250,,250,D
1,Andrey Ulashchik,Андрей Улащик,M,Raw,Open,34,90,88.8,,,,,,,,,,,280,295,322,322,,322,D
2,Aleksey Boyarintsev,Алексей Бояринцев,M,Raw,Open,28,90,89.5,,,,,,,,,,,280,290,-300,290,,290,D
3,Sergey Gorkov,Сергей Горьков,M,Raw,Open,26,90,84.7,,,,,,,,,,,215,-230,230,230,,230,D
1,Vyacheslav Bondarev,Вячеслав Бондарев,M,Raw,Masters 40-49,49,90,88.7,,,,,,,,,,,210,220,,220,,220,D
1,Vasiliy Leonenko,Василий Леоненко,M,Raw,Masters 50-59,50,90,87,,,,,,,,,,,205,215,-225,215,,215,D
1,Eldar Salakhetdinov,Эльдар Салахетдинов,M,Raw,Sub-Juniors 17-19,19,100,99.3,,,,,,,,,,,260,-275,-275,260,,260,D
1,Pavel Papenkov,Павел Папенков,M,Raw,Open,37,100,100,,,,,,,,,,,262.5,275,285,285,,285,D
2,Oleg Varvarin,Олег Варварин,M,Raw,Open,31,100,96.4,,,,,,,,,,,260,270,-275,270,,270,D
3,Ruslan Timurziev,Руслан Тимурзиев,M,Raw,Open,32,100,98.4,,,,,,,,,,,240,270,-275,270,,270,D
4,Saydulla-Efendiy Sadenov,Сайдулла-Эфендий Саденов,M,Raw,Open,58,100,96.8,,,,,,,,,,,225,227.5,,227.5,,227.5,D
1,Saydulla-Efendiy Sadenov,Сайдулла-Эфендий Саденов,M,Raw,Masters 50-59,58,100,96.8,,,,,,,,,,,225,227.5,,227.5,,227.5,D
1,Aleksandr Nemchinov,Александр Немчинов,M,Raw,Masters 60-69,65,100,92.3,,,,,,,,,,,220,-235,235,235,,235,D
2,Volodya Unezhev,Володя Унежев,M,Raw,Masters 60-69,65,100,97.7,,,,,,,,,,,150,160,-170,160,,160,D
1,Aleksandr Klepalchenko,Александр Клепальченко,M,Raw,Masters 70-79,73,100,95.8,,,,,,,,,,,145,155,-160,155,,155,D
1,Nikolay Gribkov,Николай Грибков,M,Raw,Juniors 20-23,22,110,106,,,,,,,,,,,190,200,210,210,,210,D
2,Milad Kian-vand,,M,Raw,Juniors 20-23,23,110,105.3,,,,,,,,,,,170,180,-210,180,,180,D
1,Gansukh Batmagnai,,M,Raw,Open,29,110,107.5,,,,,,,,,,,270,,,270,,270,D
2,Kirill Kabashov,Кирилл Кабашов,M,Raw,Open,27,110,107.6,,,,,,,,,,,220,270,-290,270,,270,D
3,Dmitriy Pavlovskiy,Дмитрий Павловский,M,Raw,Open,29,110,104.4,,,,,,,,,,,250,-260,,250,,250,D
4,Mikhail Kryukov,Михаил Крюков,M,Raw,Open,26,110,108.5,,,,,,,,,,,215,,,215,,215,D
DQ,Mikko Mäntymäki,,M,Raw,Open,46,110,102.3,,,,,,,,,,,-245,-245,-245,,,,D
1,Dmitriy Zharkov,Дмитрий Жарков,M,Raw,Masters 40-49,47,110,101.3,,,,,,,,,,,150,160,170,170,,170,D
1,Ivan Regulyarnyy,Иван Регулярный,M,Raw,Open,32,125,119,,,,,,,,,,,275,295,-300,295,,295,D
1,Anatoliy Milyoshkin,Анатолий Милёшкин,M,Raw,Masters 40-49,40,125,114.7,,,,,,,,,,,230,240,-245,240,,240,D
1,Andrey Shishkin,Андрей Шишкин,M,Raw,Masters 50-59,55,125,113.7,,,,,,,,,,,205,245,260,260,,260,D
DQ,Ganbold Bayandorzh,Ганболд Баяндорж,M,Raw,Masters 40-49,43,140+,140.7,,,,,,,,,,,-160,-160,-160,,,,D
1,Elena Parovatkina,Елена Пароваткина,F,Raw,Open,26,52,52,,,,,,,,,,,145,155,157.5,157.5,,157.5,D
1,Elizaveta Salasina,Елизавета Саласина,F,Raw,Teen 14-16,15,56,54.1,,,,,,,,,,,110,117.5,125,125,,125,D
1,Inessa Kontar,Инесса Контарь,F,Raw,Open,37,56,53.3,,,,,,,,,,,97.5,105,112.5,112.5,,112.5,D
1,Bozhena Pinkovskaya,Божена Пиньковская,F,Raw,Juniors 20-23,23,60,57,,,,,,,,,,,140,-150,-150,140,,140,D
1,Svetlana Limushkina,Светлана Лимушкина,F,Raw,Open,38,60,59.8,,,,,,,,,,,140,145,-150,145,,145,D
1,Anastasiya Onishchenko,Анастасия Онищенко,F,Raw,Open,30,67.5,64.6,,,,,,,,,,,160,170,-175,170,,170,D
1,Angelina Karpova,Ангелина Карпова,F,Raw,Open,20,75,72.6,,,,,,,,,,,170,-180,-180,170,,170,D
1,Darya Kuchma,Дарья Кучма,F,Raw,Teen 14-16,16,82.5,78.3,,,,,,,,,,,135,150,162.5,162.5,,162.5,D
1,Oleg Vashchenko,Олег Ващенко,M,Raw,Open,37,60,59.2,,,,,,,,,,,145,165,177.5,177.5,,177.5,D
1,Barel Hanuka,,M,Raw,Sub-Juniors 17-19,18,67.5,66,,,,,,,,,,,-185,-185,185,185,203,185,D
1,Igor Elovitskiy,Игорь Еловицкий,M,Raw,Masters 50-59,53,67.5,66.5,,,,,,,,,,,160,170,180,180,,180,D
2,Igor Chistyakov,Игорь Чистяков,M,Raw,Masters 50-59,52,67.5,67.3,,,,,,,,,,,115,125,,125,,125,D
1,Daniil Poddubnyy,Даниил Поддубный,M,Raw,Juniors 20-23,23,75,73.5,,,,,,,,,,,230,245,255,255,,255,D
1,Petr Kucheryavykh,Петр Кучерявых,M,Raw,Open,29,75,72.3,,,,,,,,,,,252.5,272.5,282.5,282.5,,282.5,D
2,Denis Shishkin,Денис Шишкин,M,Raw,Open,34,75,73,,,,,,,,,,,240,260,270,270,,270,D
3,Pavel Eliseev,Павел Елисеев,M,Raw,Open,31,75,74.3,,,,,,,,,,,255,270,-280,270,,270,D
4,Anton Prokopchenko,Антон Прокопченко,M,Raw,Open,31,75,74.7,,,,,,,,,,,-180,180,-190,180,,180,D
DQ,Nikolay Kavkaev,Николай Кавкаев,M,Raw,Open,24,75,72.1,,,,,,,,,,,-150,-150,-150,,,,D
1,Aleksey Ovchinnikov,Алексей Овчинников,M,Raw,Open,31,82.5,80.9,,,,,,,,,,,300,-310,-310,300,,300,D
2,Sergey Mik,Сергей Мик,M,Raw,Open,30,82.5,81.4,,,,,,,,,,,260,275,280,280,,280,D
3,Igor Kryat,Игорь Крят,M,Raw,Open,29,82.5,82.3,,,,,,,,,,,-250,250,257.5,257.5,,257.5,D
4,Evgeniy Nazarov,Евгений Назаров,M,Raw,Open,24,82.5,80.3,,,,,,,,,,,-230,240,-250,240,,240,D
5,Anton Achkasov,Антон Ачкасов,M,Raw,Open,36,82.5,77.3,,,,,,,,,,,190,195,200,200,,200,D
DQ,Evgeniy Rakhimov,Евгений Рахимов,M,Raw,Open,30,82.5,81.4,,,,,,,,,,,-290,-290,-290,,,,D
1,Evgeniy Khudoleev,Евгений Худолеев,M,Raw,Masters 70-79,71,82.5,81.1,,,,,,,,,,,180,190,-195,190,,190,D
1,Pavel Tushin,Павел Тушин,M,Raw,Sub-Juniors 17-19,19,90,88.6,,,,,,,,,,,240,260,-270,260,,260,D
1,Aleksey Ishin,Алексей Ишин,M,Raw,Juniors 20-23,22,90,88.4,,,,,,,,,,,260,275,285,285,,285,D
2,Ilya Tryshkin,Илья Трышкин,M,Raw,Juniors 20-23,21,90,88.5,,,,,,,,,,,235,250,260,260,,260,D
1,Oleg Osipov,Олег Осипов,M,Raw,Open,30,90,88,,,,,,,,,,,300,310,-315,310,,310,D
2,Pavel Shvetsov,Павел Швецов,M,Raw,Open,27,90,85.7,,,,,,,,,,,270,290,-297.5,290,,290,D
3,Vitaliy Zheludev,Виталий Желудев,M,Raw,Open,32,90,87.2,,,,,,,,,,,290,-300,-300,290,,290,D
DQ,Ilya Fedorov,Илья Фёдоров,M,Raw,Open,25,90,88.7,,,,,,,,,,,-345,-345,-345,,,,D
1,Vyacheslav Bondarev,Вячеслав Бондарев,M,Raw,Masters 40-49,49,90,89,,,,,,,,,,,220,230,240,240,,240,D
2,Vitaliy Spilnyy,Виталий Спильный,M,Raw,Masters 40-49,42,90,87.3,,,,,,,,,,,150,170,190,190,,190,D
1,Konstantin Dremenkov,Константин Дременков,M,Raw,Masters 50-59,51,90,86.8,,,,,,,,,,,260,275,280,280,,280,D
DQ,Aleksandr Kravtsevich,Александр Кравцевич,M,Raw,Sub-Juniors 17-19,18,100,95.8,,,,,,,,,,,-285,-295,-295,,,,D
1,Ivan Isaev,Иван Исаев,M,Raw,Juniors 20-23,22,100,99.3,,,,,,,,,,,-300,300,-312.5,300,,300,D
2,Aleksandr Lopyrev,Александр Лопырев,M,Raw,Juniors 20-23,22,100,92.3,,,,,,,,,,,250,270,-280,270,,270,D
3,Zalim Merov,Залим Меров,M,Raw,Juniors 20-23,21,100,96.7,,,,,,,,,,,-255,255,-280,255,,255,D
1,Anton Ilyasov,Антон Илясов,M,Raw,Open,28,100,98.7,,,,,,,,,,,340,-355,-355,340,,340,D
2,Bulat Gabdrakhmanov,Булат Габдрахманов,M,Raw,Open,27,100,97.2,,,,,,,,,,,315,327.5,-342.5,327.5,,327.5,D
3,Evgeniy Akhmedov,Евгений Ахмедов,M,Raw,Open,36,100,98.2,,,,,,,,,,,272.5,292.5,302.5,302.5,,302.5,D
4,David Ikbolov,Давид Икболов,M,Raw,Open,33,100,97.8,,,,,,,,,,,260,280,300,300,,300,D
5,Maksim Medvedev,Максим Медведев,M,Raw,Open,36,100,99.2,,,,,,,,,,,270,-290,290,290,,290,D
6,Denis Bokov,Денис Боков,M,Raw,Open,27,100,92.7,,,,,,,,,,,245,-260,,245,,245,D
DQ,Evgeniy Kravchenko,Евгений Кравченко,M,Raw,Open,30,100,95.9,,,,,,,,,,,-360,-370,-370,,,,D
1,Oleg Okladnoy,Олег Окладной,M,Raw,Masters 40-49,42,100,91.8,,,,,,,,,,,280,-290,-290,280,,280,D
2,Andrey Sheynin,Андрей Шейнин,M,Raw,Masters 40-49,44,100,94.4,,,,,,,,,,,210,220,230,230,,230,D
3,Akbar Arzanghikordehdehi,,M,Raw,Masters 40-49,43,100,98.6,,,,,,,,,,,195,-210,-232.5,195,,195,D
1,Vadim Zaytsev,Вадим Зайцев,M,Raw,Masters 50-59,57,100,91.5,,,,,,,,,,,240,255,270,270,,270,D
2,Ildar Fayzreev,Ильдар Файзреев,M,Raw,Masters 50-59,56,100,94.4,,,,,,,,,,,225,232.5,242.5,242.5,,242.5,D
1,Aleksandr Tsvetkov,Александр Цветков,M,Raw,Masters 60-69,60,100,97.7,,,,,,,,,,,210,235,,235,,235,D
2,Yuriy Pletyukhov,Юрий Плетюхов,M,Raw,Masters 60-69,62,100,98,,,,,,,,,,,210,225,235,235,,235,D
1,Aleksandr Klepalchenko,Александр Клепальченко,M,Raw,Masters 70-79,73,100,95.8,,,,,,,,,,,145,155,-160,155,,155,D
1,Jorden Klein,,M,Raw,Juniors 20-23,22,110,104.5,,,,,,,,,,,260,-275,-275,260,,260,D
1,Aleksandr Kodis,Александр Кодис,M,Raw,Open,30,110,103.5,,,,,,,,,,,330,340,350,350,-356,350,D
2,Akim Vakhtin,Аким Вахтин,M,Raw,Open,34,110,107.3,,,,,,,,,,,340,350,-360,350,,350,D
3,Aleksandr Ovodkov,Александр Оводков,M,Raw,Open,32,110,108,,,,,,,,,,,310,320,-330,320,,320,D
4,Evgeniy Nemkevich,Евгений Немкевич,M,Raw,Open,35,110,106,,,,,,,,,,,280,290,-295,290,,290,D
5,Jorden Klein,,M,Raw,Open,22,110,104.5,,,,,,,,,,,260,-275,-275,260,,260,D
DQ,Aleksey Mamonov,Алексей Мамонов,M,Raw,Open,41,110,106,,,,,,,,,,,-322.5,-322.5,,,,,D
1,Sergey Luchenkov,Сергей Лученков,M,Raw,Open,40,125,125,,,,,,,,,,,300,315,322.5,322.5,,322.5,D
2,Dmitriy Pys,Дмитрий Пысь,M,Raw,Open,31,125,124,,,,,,,,,,,320,-335,-335,320,,320,D
1,Peter Seger,,M,Raw,Masters 40-49,49,125,114.2,,,,,,,,,,,-265,-265,290,290,,290,D
1,Aleksandr Bereznikov,Александр Березников,M,Raw,Masters 50-59,53,125,114.4,,,,,,,,,,,260,,,260,,260,D
1,Aleksandr Alekseev,Александр Алексеев,M,Raw,Open,37,140,125.9,,,,,,,,,,,340,360,370,370,,370,D
2,Evgeniy Ivanov,Евгений Иванов,M,Raw,Open,44,140,128.3,,,,,,,,,,,305,-315,,305,,305,D
3,Sergey Kuleshov,Сергей Кулешов,M,Raw,Open,25,140,132.6,,,,,,,,,,,285,297.5,-305,297.5,,297.5,D
1,Sergey Shiryaev,Сергей Ширяев,M,Raw,Masters 40-49,42,140,131.8,,,,,,,,,,,315,330,-345,330,,330,D
2,Evgeniy Ivanov,Евгений Иванов,M,Raw,Masters 40-49,44,140,128.3,,,,,,,,,,,305,-315,,305,,305,D
DQ,Asko Karu,,M,Raw,Open,25,140+,146.7,,,,,,,,,,,-350,-350,-380,,,,D
1,Ganbold Bayandorzh,Ганболд Баяндорж,M,Raw,Masters 40-49,43,140+,140.7,,,,,,,,,,,140,-200,,140,,140,D
DQ,Evgeniy Rodionov,Евгений Родионов,M,Single-ply,Open,36,100,94.2,185,200,-210,200,,-167.5,-167.5,-167.5,,,,,,,,,SBD
1,Ilya Lisitskiy,Илья Лисицкий,M,Single-ply,Open,24,110,103.5,-170,180,190,190,,120,130,140,140,,220,230,,230,,560,SBD
1,Sergey Kandaurov,Сергей Кандауров,M,Single-ply,Open,43,82.5,80.1,200,210,,210,,170,190,,190,,190,210,220,220,,620,SBD
1,Sergey Kandaurov,Сергей Кандауров,M,Single-ply,Masters 40-49,43,82.5,80.1,200,210,,210,,170,190,,190,,190,210,220,220,,620,SBD
1,Sabeghi Rashid,,M,Single-ply,Masters 40-49,44,90,89.9,,,,,,190,195,-205,195,,,,,,,195,B
1,Vladimir Konchakov,Владимир Кончаков,M,Single-ply,Open,44,100,90.2,,,,,,250,262.5,-270,262.5,,,,,,,262.5,B
DQ,Munkhbaatar Baasandorj,,M,Single-ply,Open,35,100,94,,,,,,-140,-160,,,,,,,,,,B
1,Vladimir Konchakov,Владимир Кончаков,M,Single-ply,Masters 40-49,44,100,90.2,,,,,,250,262.5,-270,262.5,,,,,,,262.5,B
2,Oleg Loktionov,Олег Локтионов,M,Single-ply,Masters 40-49,40,100,98.5,,,,,,200,210,-217.5,210,,,,,,,210,B
1,Mikhail Gorelov,Михаил Горелов,M,Single-ply,Masters 40-49,41,110,101.4,,,,,,-210,210,-220,210,,,,,,,210,B
1,Sergey Chugurov,Сергей Чугуров,M,Single-ply,Open,24,75,75,,,,,,210,-220,-220,210,,,,,,,210,B
1,Pavel Silushin,Павел Силушин,M,Single-ply,Open,28,90,87.4,,,,,,245,,,245,,,,,,,245,B
1,Vitaliy Spilnyy,Виталий Спильный,M,Single-ply,Masters 40-49,42,90,87.3,,,,,,150,160,,160,,,,,,,160,B
1,Vladimir Sibalakov,Владимир Сибалаков,M,Single-ply,Open,36,125,116.5,,,,,,270,290,-305,290,,,,,,,290,B
1,Chubaru Asadzadekh,Чубару Асадзадех,M,Single-ply,Open,33,140,128.2,,,,,,-200,200,-220,200,,,,,,,200,B
1,Emin Galib Ogly Mamedov,Емин Галиб Оглы Мамедов,M,Multi-ply,Open,43,110,109.3,,,,,,350,380,-400,380,,,,,,,380,B
1,Emin Galib Ogly Mamedov,Емин Галиб Оглы Мамедов,M,Multi-ply,Masters 40-49,43,110,109.3,,,,,,350,380,-400,380,,,,,,,380,B
1,Elena Prokopova,Елена Прокопова,F,Single-ply,Open,51,67.5,65.2,,,,,,90,-95,95,95,,,,,,,95,B
1,Elena Prokopova,Елена Прокопова,F,Single-ply,Masters 50-59,51,67.5,65.2,,,,,,90,-95,95,95,,,,,,,95,B
1,Irina Ogir,Ирина Огирь,F,Single-ply,Open,32,75,74.6,,,,,,105,110,115,115,,,,,,,115,B
1,Mustafa Seytnebiev,Мустафа Сейтнебиев,M,Single-ply,Juniors 20-23,21,75,74.8,,,,,,200,-207.5,-210,200,,,,,,,200,B
1,Mustafa Seytnebiev,Мустафа Сейтнебиев,M,Single-ply,Open,21,75,74.8,,,,,,200,-207.5,-210,200,,,,,,,200,B
1,Valeriy Sadykov,Валерий Садыков,M,Single-ply,Masters 40-49,41,75,70.6,,,,,,185,200,-207.5,200,,,,,,,200,B
1,Aleksandr Matveev,Александр Матвеев,M,Single-ply,Open,43,82.5,82,,,,,,250,-260,-260,250,,,,,,,250,B
1,Furkat Shafiev,Фуркат Шафиев,M,Single-ply,Masters 40-49,44,82.5,82.2,,,,,,110,-130,-130,110,,,,,,,110,B
1,Vyacheslav Troshinskiy,Вячеслав Трошинский,M,Single-ply,Masters 50-59,57,82.5,78.6,,,,,,150,160,167.5,167.5,,,,,,,167.5,B
DQ,Viktor Garanin,Виктор Гаранин,M,Single-ply,Juniors 20-23,23,90,88.5,,,,,,-215,-215,-215,,,,,,,,,B
1,Anton Kirlitsa,Антон Кирлица,M,Single-ply,Open,33,90,88.5,,,,,,-215,-215,215,215,,,,,,,215,B
DQ,Viktor Garanin,Виктор Гаранин,M,Single-ply,Open,23,90,88.5,,,,,,-215,-215,-215,,,,,,,,,B
1,Vasiliy Leonenko,Василий Леоненко,M,Single-ply,Masters 50-59,50,90,88,,,,,,180,190,-200,190,,,,,,,190,B
1,Viktor Chantsev,Виктор Чанцев,M,Single-ply,Masters 60-69,60,90,88.2,,,,,,-130,130,140,140,,,,,,,140,B
1,Andrey Dyozhin,Андрей Дёжин,M,Single-ply,Open,25,100,90.9,,,,,,230,270,-275,270,,,,,,,270,B
2,Murat Dzhaytabarov,Мурат Джайтабаров,M,Single-ply,Open,53,100,99.9,,,,,,170,-200,-200,170,,,,,,,170,B
1,Murat Dzhaytabarov,Мурат Джайтабаров,M,Single-ply,Masters 50-59,53,100,99.9,,,,,,170,-200,-200,170,,,,,,,170,B
1,Erat Nurdykhan,Ерат Нурдыхан,M,Single-ply,Open,31,110,101.9,,,,,,200,220,-240,220,,,,,,,220,B
2,Marat Dzhaylaubaev,Марат Джайлаубаев,M,Single-ply,Open,61,110,102.5,,,,,,140,160,180,180,,,,,,,180,B
1,Igor Kurotchenko,Игорь Куротченко,M,Single-ply,Masters 50-59,55,110,108.8,,,,,,180,200,-230,200,,,,,,,200,B
1,Andrey Chekachkov,Андрей Чекачков,M,Single-ply,Open,37,125,120,,,,,,240,-250,260,260,,,,,,,260,B
DQ,Kristina Yashkova,Кристина Яшкова,F,Single-ply,Open,39,52,51.2,,,,,,35,,,35,,,,,,,,B
1,Roman Kilin,Роман Килин,M,Single-ply,Sub-Juniors 17-19,19,82.5,77.6,,,,,,215,-225,-230,215,,,,,,,215,B
1,Roman Kilin,Роман Килин,M,Single-ply,Open,19,82.5,77.6,,,,,,215,-225,-230,215,,,,,,,215,B
1,Lenur Kataev,Ленур Катаев,M,Single-ply,Juniors 20-23,23,90,88.8,,,,,,280,-290,-290,280,,,,,,,280,B
1,Lenur Kataev,Ленур Катаев,M,Single-ply,Open,23,90,88.8,,,,,,280,-290,-290,280,,,,,,,280,B
2,Aleksey Samardin,Алексей Самардин,M,Single-ply,Open,34,90,87.7,,,,,,200,220,235,235,,,,,,,235,B
DQ,Pavel Silushin,Павел Силушин,M,Single-ply,Open,28,90,87.4,,,,,,-260,-260,-260,,,,,,,,,B
1,Oleg Zhulinskiy,Олег Жулинский,M,Single-ply,Open,37,100,97.6,,,,,,250,270,275,275,,,,,,,275,B
2,Aleksandr Borshchev,Александр Борщев,M,Single-ply,Open,31,100,98.6,,,,,,272.5,-285,-285,272.5,,,,,,,272.5,B
3,Maksim Medvedev,Максим Медведев,M,Single-ply,Open,36,100,99.2,,,,,,250,270,-277.5,270,,,,,,,270,B
4,Aleksandr Serichenko,Александр Сериченко,M,Single-ply,Open,28,100,90.1,,,,,,190,-210,-210,190,,,,,,,190,B
1,Aleksandr Tsvetkov,Александр Цветков,M,Single-ply,Masters 60-69,60,100,97.7,,,,,,150,160,170,170,,,,,,,170,B
1,Sergey Polutin,Сергей Полутин,M,Single-ply,Open,42,110,105.2,,,,,,250,272.5,287.5,287.5,,,,,,,287.5,B
2,Konstantin Bochkaryov,Константин Бочкарёв,M,Single-ply,Open,38,110,101.8,,,,,,220,230,240,240,,,,,,,240,B
1,Sergey Polutin,Сергей Полутин,M,Single-ply,Masters 40-49,42,110,105.2,,,,,,250,272.5,287.5,287.5,,,,,,,287.5,B
2,Aleksandr Galakhov,Александр Галахов,M,Single-ply,Masters 40-49,46,110,105.9,,,,,,270,280,287.5,287.5,,,,,,,287.5,B
1,Nikolay Dubina,Николай Дубина,M,Single-ply,Masters 50-59,51,125,118.4,,,,,,230,-250,250,250,,,,,,,250,B
1,Amarzaya Taivantumur,,M,Single-ply,Open,30,100,91.2,,,,,,180,232.5,-272.5,232.5,,,,,,,232.5,B
1,Valeriy Kurochkin,Валерий Курочкин,M,Single-ply,Open,38,100,100,,,,,,-290,300,-310,300,,,,,,,300,B
2,Aleksandr Zhukov,Александр Жуков,M,Single-ply,Open,34,100,97.7,,,,,,250,270,-300,270,,,,,,,270,B
1,Nikolay Sokolov,Николай Соколов,M,Single-ply,Open,38,75,74.9,,,,,,,,,,,280,302.5,315,315,-325,315,D
1,Egor Filatov,Егор Филатов,M,Single-ply,Open,24,82.5,77.8,,,,,,,,,,,202.5,217.5,-225,217.5,,217.5,D
