Name,WeightClassKg,Division,Sex,Best3SquatKg,Best3BenchKg,Best3DeadliftKg,TotalKg,Event,Equipment,Place
Charles Lockard,52,Class II & Below,M,115.67,65.77,145.15,326.59,SBD,Single-ply,1
K. Blackburn,56,Class II & Below,M,108.86,90.72,158.76,358.34,SBD,Single-ply,1
R. Yalts,56,Class II & Below,M,117.93,86.18,149.69,353.8,SBD,Single-ply,2
S. Gentry,56,Class II & Below,M,102.06,86.18,142.88,331.12,SBD,Single-ply,3
G. Picklesimer,60,Class II & Below,M,149.69,90.72,181.44,421.84,SBD,Single-ply,1
R. Graham,67.5,Class II & Below,M,151.95,124.74,199.58,476.27,SBD,Single-ply,1
M. Contino,67.5,Class II & Below,M,165.56,108.86,199.58,474,SBD,Single-ply,2
M. Evans,67.5,Class II & Below,M,127.01,140.61,188.24,455.86,SBD,Single-ply,3
K. Kiser,67.5,Class II & Below,M,163.29,117.93,174.63,455.86,SBD,Single-ply,4
P. Martino,67.5,Class II & Below,M,161.03,113.4,181.44,455.86,SBD,Single-ply,5
R. Corvin,67.5,Class II & Below,M,158.76,97.52,181.44,437.72,SBD,Single-ply,6
J. Watson,67.5,Class II & Below,M,131.54,127.01,170.1,428.65,SBD,Single-ply,7
K. Gandee,67.5,Class II & Below,M,122.47,113.4,163.29,399.16,SBD,Single-ply,8
G. Bell,67.5,Class II & Below,M,120.2,77.11,172.37,369.68,SBD,Single-ply,9
D. Vozel,75,Class II & Below,M,185.97,136.08,226.8,548.85,SBD,Single-ply,1
G. Neff,75,Class II & Below,M,204.12,127.01,215.46,546.58,SBD,Single-ply,2
F. Schwaiger,75,Class II & Below,M,181.44,138.35,208.65,528.44,SBD,Single-ply,3
D. Neff,75,Class II & Below,M,190.51,113.4,217.72,521.63,SBD,Single-ply,4
M. Scott #2,75,Class II & Below,M,190.51,127.01,204.12,521.63,SBD,Single-ply,5
G. Ball,75,Class II & Below,M,158.76,117.93,181.44,458.13,SBD,Single-ply,7
H. Iredale,75,Class II & Below,M,163.29,117.93,181.44,462.66,SBD,Single-ply,6
J. Wisniewski,75,Class II & Below,M,136.08,92.99,167.83,396.89,SBD,Single-ply,8
D. Blackburn,75,Class II & Below,M,199.58,140.61,,,SBD,Single-ply,DQ
R. Paul,75,Class II & Below,M,145.15,104.33,,,SBD,Single-ply,DQ
Michael Hundley,82.5,Class II & Below,M,233.6,129.27,258.55,621.42,SBD,Single-ply,1
R. Taylor,82.5,Class II & Below,M,229.06,147.42,244.94,621.42,SBD,Single-ply,2
D. Stephens,82.5,Class II & Below,M,217.72,129.27,254.01,601.01,SBD,Single-ply,3
M. Scott #2,82.5,Class II & Below,M,219.99,133.81,240.4,594.21,SBD,Single-ply,4
Dave Light,82.5,Class II & Below,M,213.19,145.15,229.06,587.4,SBD,Single-ply,5
J. Worman,82.5,Class II & Below,M,208.65,158.76,217.72,585.13,SBD,Single-ply,6
L. Swiger,82.5,Class II & Below,M,199.58,99.79,204.12,503.49,SBD,Single-ply,7
J. Laessle,82.5,Class II & Below,M,176.9,127.01,174.63,478.54,SBD,Single-ply,9
P. Bevilacqua,82.5,Class II & Below,M,158.76,113.4,208.65,480.81,SBD,Single-ply,8
G. Bachelder,82.5,Class II & Below,M,149.69,117.93,192.78,460.4,SBD,Single-ply,10
M. Johnson #16,82.5,Class II & Below,M,163.29,113.4,181.44,458.13,SBD,Single-ply,11
D. Dague,82.5,Class II & Below,M,138.35,104.33,199.58,442.25,SBD,Single-ply,12
John Ramsey,90,Class II & Below,M,258.55,138.35,251.74,648.64,SBD,Single-ply,1
B. Traub,90,Class II & Below,M,222.26,129.27,288.03,639.57,SBD,Single-ply,2
Brian Nester,90,Class II & Below,M,238.14,136.08,256.28,630.49,SBD,Single-ply,3
E. Bucholz,90,Class II & Below,M,238.14,147.42,244.94,630.49,SBD,Single-ply,4
Mike Leikari,90,Class II & Below,M,201.85,145.15,251.74,598.74,SBD,Single-ply,5
A. Mayo,90,Class II & Below,M,217.72,136.08,235.87,589.67,SBD,Single-ply,6
S. VanWinkle,90,Class II & Below,M,215.46,149.69,210.92,576.06,SBD,Single-ply,7
R. James,90,Class II & Below,M,181.44,131.54,199.58,512.56,SBD,Single-ply,8
P. Towson,90,Class II & Below,M,181.44,113.4,204.12,498.95,SBD,Single-ply,9
L. DeVito,90,Class II & Below,M,136.08,161.03,181.44,478.54,SBD,Single-ply,10
H. Sharkey,90,Class II & Below,M,122.47,145.15,181.44,449.06,SBD,Single-ply,11
P. Campbell,100,Class II & Below,M,240.4,179.17,272.16,691.73,SBD,Single-ply,1
M. Purdon,100,Class II & Below,M,276.69,176.9,229.06,682.66,SBD,Single-ply,2
D. Hunt,100,Class II & Below,M,260.82,140.61,267.62,669.05,SBD,Single-ply,3
David Benner,100,Class II & Below,M,240.4,145.15,240.4,625.96,SBD,Single-ply,4
D. Merriman,100,Class II & Below,M,244.94,127.01,247.21,619.15,SBD,Single-ply,5
Dwight Adkins,100,Class II & Below,M,235.87,142.88,226.8,605.55,SBD,Single-ply,6
G. Pomeroy,100,Class II & Below,M,204.12,127.01,254.01,585.13,SBD,Single-ply,7
J. Hunter,100,Class II & Below,M,204.12,149.69,226.8,580.6,SBD,Single-ply,8
R. James,100,Class II & Below,M,183.71,117.93,199.58,501.22,SBD,Single-ply,9
M. Lawrence,100,Class II & Below,M,158.76,92.99,226.8,478.54,SBD,Single-ply,10
W. Harris,110,Class II & Below,M,249.48,161.03,285.76,696.27,SBD,Single-ply,1
T. Frizzell,110,Class II & Below,M,272.16,165.56,256.28,694,SBD,Single-ply,2
S. Schuh,110,Class II & Below,M,249.48,181.44,235.87,666.78,SBD,Single-ply,3
M. Miller,110,Class II & Below,M,233.6,158.76,272.16,664.51,SBD,Single-ply,4
C. Eckstein,110,Class II & Below,M,238.14,136.08,249.48,623.69,SBD,Single-ply,5
B. Shubert,110,Class II & Below,M,224.53,167.83,226.8,619.15,SBD,Single-ply,6
D. MacGregor,110,Class II & Below,M,215.46,129.27,183.71,528.44,SBD,Single-ply,7
T. Honingford,110,Class II & Below,M,249.48,,,,SBD,Single-ply,DQ
J. Sheshull,125,Class II & Below,M,244.94,199.58,276.69,721.21,SBD,Single-ply,1
Steve Miller #1,125,Class II & Below,M,281.23,147.42,256.28,684.93,SBD,Single-ply,2
S. Judd,125,Class II & Below,M,240.4,158.76,272.16,671.32,SBD,Single-ply,3
T. Lewis,125,Class II & Below,M,242.67,147.42,229.06,619.15,SBD,Single-ply,4
M. Bergel,60,Teen,M,138.35,92.99,158.76,390.09,SBD,Single-ply,1
D. Couch,60,Teen,M,131.54,88.45,147.42,367.41,SBD,Single-ply,2
J. Tracey,67.5,Teen,M,170.1,111.13,204.12,485.34,SBD,Single-ply,1
D. Brown,67.5,Teen,M,147.42,120.2,161.03,428.65,SBD,Single-ply,2
T. Helpbringer,67.5,Teen,M,136.08,90.72,163.29,390.09,SBD,Single-ply,3
G. Sanders,67.5,Teen,M,131.54,86.18,154.22,371.95,SBD,Single-ply,4
C. Vestring,67.5,Teen,M,131.54,74.84,165.56,371.95,SBD,Single-ply,5
Jeff Chorpenning,75,Teen,M,222.26,124.74,260.82,607.81,SBD,Single-ply,1
Brian Billman,75,Teen,M,217.72,136.08,235.87,589.67,SBD,Single-ply,2
W. Fair,75,Teen,M,201.85,117.93,217.72,537.51,SBD,Single-ply,3
Mick Chaffee,75,Teen,M,181.44,124.74,226.8,532.97,SBD,Single-ply,4
D. Neff,75,Teen,M,190.51,113.4,217.72,521.63,SBD,Single-ply,5
T. Reynolds,90,Teen,M,213.19,136.08,238.14,587.4,SBD,Single-ply,1
D. Messmer,90,Teen,M,158.76,129.27,210.92,498.95,SBD,Single-ply,2
P. Anastasio,100,Teen,M,274.42,197.31,285.76,757.5,SBD,Single-ply,1
J. April,110,Teen,M,265.35,197.31,,,SBD,Single-ply,DQ
Mary Ryan-Jeffrey,52,Open,F,115.67,77.11,136.08,328.85,SBD,Single-ply,1
P. Booth,44,Open,F,90.72,47.63,113.4,251.74,SBD,Single-ply,2
T. Floren,60,Open,F,111.13,65.77,131.54,308.44,SBD,Single-ply,3
D. Owens,52,Open,F,102.06,54.43,111.13,267.62,SBD,Single-ply,4
D. Savasuk,67.5,Open,F,117.93,65.77,124.74,308.44,SBD,Single-ply,5
D. Koukos,56,Open,F,92.99,47.63,122.47,263.08,SBD,Single-ply,6
M. Greer,82.5,Open,F,136.08,63.5,151.95,351.53,SBD,Single-ply,7
C. Brennan,48,Open,F,70.31,40.82,99.79,210.92,SBD,Single-ply,8
R. Mattingly,52,Open,F,79.38,34.02,113.4,226.8,SBD,Single-ply,9
L. Buchoz,67.5,Open,F,83.91,49.9,127.01,260.82,SBD,Single-ply,10
K. Turner,82.5,Open,F,108.86,45.36,131.54,285.76,SBD,Single-ply,11
C. Sowers,67.5,Open,F,70.31,49.9,90.72,210.92,SBD,Single-ply,12
W. Wilson,82.5,Masters,M,192.78,122.47,242.67,557.92,SBD,Single-ply,1
J. Wells,75,Masters,M,170.1,154.22,158.76,483.08,SBD,Single-ply,2
H. Rome,67.5,Masters,M,147.42,104.33,174.63,426.38,SBD,Single-ply,3
Bob Coyer,125+,Masters,M,181.44,147.42,242.67,571.53,SBD,Single-ply,4
M. Seiter,67.5,Open,M,165.56,127.01,204.12,496.68,SBD,Single-ply,1
Bob Chetlin,67.5,Open,M,231.33,124.74,,,SBD,Single-ply,DQ
Rick Weil,75,Open,M,238.14,210.92,240.4,689.46,SBD,Single-ply,1
Dave Karam,75,Open,M,254.01,158.76,244.94,657.71,SBD,Single-ply,2
George McElroy,75,Open,M,260.82,147.42,235.87,644.1,SBD,Single-ply,3
Mike Lechler,75,Open,M,254.01,147.42,215.46,616.89,SBD,Single-ply,4
Scott Schisler,82.5,Open,M,249.48,142.88,233.6,625.96,SBD,Single-ply,1
G. Rome,82.5,Open,M,185.97,108.86,204.12,498.95,SBD,Single-ply,2
Ron Grinold,82.5,Open,M,,,,,SBD,Single-ply,DQ
H. Smith,90,Open,M,244.94,161.03,247.21,653.17,SBD,Single-ply,1
Vince White,90,Open,M,258.55,179.17,215.46,653.17,SBD,Single-ply,2
Scott Tusic,100,Open,M,272.16,199.58,272.16,743.89,SBD,Single-ply,1
M. White #1,100,Open,M,,,,,SBD,Single-ply,DQ
Dan Bloxton,110,Open,M,292.57,174.63,290.3,757.5,SBD,Single-ply,1
J. MacLeod,110,Open,M,24.95,24.95,,,SBD,Single-ply,DQ
Louie Simmons,110,Open,M,,,,,SBD,Single-ply,DQ
Matt Dimel,125,Open,M,331.12,199.58,317.52,848.22,SBD,Single-ply,1
Dean Glitt,125,Open,M,290.3,192.78,274.42,757.5,SBD,Single-ply,2
